unit_tests.vcd
$date
	Sun Jun 22 17:21:42 2025
$end
$version
	Icarus Verilog
$end
$timescale
	1ps
$end
$scope module unit_tests $end
$var wire 1 ! valid $end
$var wire 520 " sig_out [519:0] $end
$var wire 1 # nonce_ready $end
$var wire 256 $ nonce_out [255:0] $end
$var wire 1 % nonce_error $end
$var wire 256 & mod_result [255:0] $end
$var wire 256 ' keccak_hash_out [255:0] $end
$var wire 1 ( error_verifier $end
$var wire 1 ) error_signer $end
$var wire 1 * error_mod $end
$var wire 1 + done_verifier $end
$var wire 1 , done_signer $end
$var wire 1 - done_mod $end
$var wire 1 . busy_verifier $end
$var wire 1 / busy_signer $end
$var wire 1 0 busy_mod $end
$var reg 1 1 clk $end
$var reg 512 2 keccak_data_in [511:0] $end
$var reg 1 3 keccak_rst $end
$var reg 1 4 load_nonce $end
$var reg 256 5 mod_a [255:0] $end
$var reg 256 6 mod_b [255:0] $end
$var reg 256 7 mod_modulus [255:0] $end
$var reg 3 8 mod_operation [2:0] $end
$var reg 256 9 msg_hash [255:0] $end
$var reg 256 : msg_in [255:0] $end
$var reg 256 ; nonce [255:0] $end
$var reg 256 < nonce_in [255:0] $end
$var reg 1 = nonce_valid $end
$var reg 256 > priv_key [255:0] $end
$var reg 256 ? pub_key_x [255:0] $end
$var reg 256 @ pub_key_y [255:0] $end
$var reg 1 A rst_n $end
$var reg 512 B signature [511:0] $end
$var reg 1 C start_mod $end
$var reg 1 D start_signer $end
$var reg 1 E start_verifier $end
$var integer 32 F fail_count [31:0] $end
$var integer 32 G i [31:0] $end
$var integer 32 H keccak_covered [31:0] $end
$var integer 32 I mod_add_covered [31:0] $end
$var integer 32 J mod_mul_covered [31:0] $end
$var integer 32 K nonce_error_covered [31:0] $end
$var integer 32 L nonce_ready_covered [31:0] $end
$var integer 32 M pass_count [31:0] $end
$var integer 32 N signer_done_covered [31:0] $end
$var integer 32 O signer_error_covered [31:0] $end
$var integer 32 P verifier_error_covered [31:0] $end
$var integer 32 Q verifier_valid_covered [31:0] $end
$scope module keccak_inst $end
$var wire 1 1 clk $end
$var wire 512 R data_in [511:0] $end
$var wire 1 3 rst $end
$var reg 256 S hash [255:0] $end
$var reg 256 T hash_out [255:0] $end
$var reg 1600 U state [1599:0] $end
$scope function rotate_left $end
$var reg 64 V data [63:0] $end
$var reg 64 W result [63:0] $end
$var reg 6 X shift [5:0] $end
$upscope $end
$scope task keccak_permutation $end
$var reg 1600 Y A [1599:0] $end
$var reg 1600 Z B [1599:0] $end
$var reg 1600 [ in_state [1599:0] $end
$var reg 64 \ lane_data [63:0] $end
$var reg 1600 ] out_state [1599:0] $end
$var reg 6 ^ rho_offset [5:0] $end
$var integer 32 _ i [31:0] $end
$var integer 32 ` x [31:0] $end
$var integer 32 a y [31:0] $end
$upscope $end
$upscope $end
$scope module mod_inst $end
$var wire 256 b a [255:0] $end
$var wire 256 c b [255:0] $end
$var wire 1 1 clk $end
$var wire 256 d modulus [255:0] $end
$var wire 3 e operation [2:0] $end
$var wire 1 A rst_n $end
$var wire 1 C start $end
$var reg 1 0 busy $end
$var reg 8 f cycle_count [7:0] $end
$var reg 1 - done $end
$var reg 1 * error $end
$var reg 512 g extended_result [511:0] $end
$var reg 3 h next_state [2:0] $end
$var reg 256 i result [255:0] $end
$var reg 3 j state [2:0] $end
$var reg 256 k temp_result [255:0] $end
$var reg 256 l working_a [255:0] $end
$var reg 256 m working_b [255:0] $end
$scope function mod_add $end
$var reg 256 n a [255:0] $end
$var reg 256 o b [255:0] $end
$var reg 256 p p [255:0] $end
$var reg 257 q sum [256:0] $end
$upscope $end
$scope function mod_inv $end
$var reg 256 r a [255:0] $end
$var reg 256 s p [255:0] $end
$var reg 256 t power [255:0] $end
$var reg 256 u result [255:0] $end
$var integer 32 v i [31:0] $end
$upscope $end
$scope function mod_mul $end
$var reg 256 w a [255:0] $end
$var reg 256 x b [255:0] $end
$var reg 256 y p [255:0] $end
$var reg 512 z product [511:0] $end
$var reg 256 { result [255:0] $end
$upscope $end
$scope function mod_sub $end
$var reg 256 | a [255:0] $end
$var reg 256 } b [255:0] $end
$var reg 257 ~ diff [256:0] $end
$var reg 256 !" p [255:0] $end
$upscope $end
$upscope $end
$scope module nonce_inst $end
$var wire 1 1 clk $end
$var wire 1 4 load_nonce $end
$var wire 256 "" nonce_in [255:0] $end
$var wire 1 = nonce_valid $end
$var wire 1 A rst_n $end
$var reg 8 #" cycle_count [7:0] $end
$var reg 2 $" next_state [1:0] $end
$var reg 256 %" nonce [255:0] $end
$var reg 1 % nonce_error $end
$var reg 1 # nonce_ready $end
$var reg 2 &" state [1:0] $end
$var reg 256 '" temp_nonce [255:0] $end
$scope function is_valid_nonce $end
$var reg 256 (" n [255:0] $end
$upscope $end
$upscope $end
$scope module signer_inst $end
$var wire 1 1 clk $end
$var wire 256 )" msg_in [255:0] $end
$var wire 256 *" nonce [255:0] $end
$var wire 256 +" priv_key [255:0] $end
$var wire 1 A rst_n $end
$var wire 1 D start $end
$var wire 256 ," mod_mul_result [255:0] $end
$var wire 1 -" mod_mul_done $end
$var wire 1 ." mod_mul_busy $end
$var wire 256 /" mod_inv_result [255:0] $end
$var wire 1 0" mod_inv_done $end
$var wire 1 1" mod_inv_busy $end
$var wire 256 2" mod_add_result [255:0] $end
$var wire 1 3" mod_add_done $end
$var wire 1 4" mod_add_busy $end
$var reg 1 / busy $end
$var reg 8 5" cycle_count [7:0] $end
$var reg 1 , done $end
$var reg 1 ) error $end
$var reg 256 6" k_inv [255:0] $end
$var reg 3 7" next_state [2:0] $end
$var reg 256 8" r [255:0] $end
$var reg 256 9" s [255:0] $end
$var reg 520 :" sig_out [519:0] $end
$var reg 3 ;" state [2:0] $end
$var reg 256 <" temp_result [255:0] $end
$var reg 8 =" v [7:0] $end
$scope module mod_adder $end
$var wire 256 >" a [255:0] $end
$var wire 256 ?" b [255:0] $end
$var wire 1 1 clk $end
$var wire 256 @" modulus [255:0] $end
$var wire 1 A rst_n $end
$var reg 1 4" busy $end
$var reg 1 3" done $end
$var reg 256 A" result [255:0] $end
$var reg 257 B" sum [256:0] $end
$upscope $end
$scope module mod_inverse $end
$var wire 256 C" a [255:0] $end
$var wire 1 1 clk $end
$var wire 256 D" modulus [255:0] $end
$var wire 1 A rst_n $end
$var reg 1 1" busy $end
$var reg 8 E" count [7:0] $end
$var reg 1 0" done $end
$var reg 256 F" result [255:0] $end
$var reg 256 G" temp [255:0] $end
$upscope $end
$scope module mod_multiplier $end
$var wire 256 H" a [255:0] $end
$var wire 256 I" b [255:0] $end
$var wire 1 1 clk $end
$var wire 256 J" modulus [255:0] $end
$var wire 1 A rst_n $end
$var reg 1 ." busy $end
$var reg 8 K" count [7:0] $end
$var reg 1 -" done $end
$var reg 512 L" product [511:0] $end
$var reg 256 M" result [255:0] $end
$upscope $end
$upscope $end
$scope module verifier_inst $end
$var wire 1 1 clk $end
$var wire 256 N" msg_hash [255:0] $end
$var wire 256 O" pub_key_x [255:0] $end
$var wire 256 P" pub_key_y [255:0] $end
$var wire 1 A rst_n $end
$var wire 512 Q" signature [511:0] $end
$var wire 1 E start $end
$var reg 1 . busy $end
$var reg 8 R" cycle_count [7:0] $end
$var reg 1 + done $end
$var reg 1 ( error $end
$var reg 1 S" input_valid $end
$var reg 3 T" next_state [2:0] $end
$var reg 256 U" point_x [255:0] $end
$var reg 256 V" point_y [255:0] $end
$var reg 256 W" r [255:0] $end
$var reg 256 X" s [255:0] $end
$var reg 3 Y" state [2:0] $end
$var reg 256 Z" u1 [255:0] $end
$var reg 256 [" u2 [255:0] $end
$var reg 1 ! valid $end
$var reg 256 \" w [255:0] $end
$upscope $end
$upscope $end
$enddefinitions $end
#0
$dumpvars
b0 \"
b0 ["
b0 Z"
b0 Y"
b0 X"
b0 W"
b0 V"
b0 U"
b0 T"
0S"
b0 R"
bx Q"
bx P"
bx O"
bx N"
b0 M"
bx L"
b0 K"
b1111111111111111111111111111111111111111111111111111111111111111111111111111111111111111111111111111111111111111111111111111111111111111111111111111111111111111111111111111111111111111111111111111111111111111111111111111111011111111111111111111110000101111 J"
b0 I"
b0 H"
bx G"
b0 F"
b0 E"
b1111111111111111111111111111111111111111111111111111111111111111111111111111111111111111111111111111111111111111111111111111111111111111111111111111111111111111111111111111111111111111111111111111111111111111111111111111111011111111111111111111110000101111 D"
b0 C"
bx B"
b0 A"
b1111111111111111111111111111111111111111111111111111111111111111111111111111111111111111111111111111111111111111111111111111111111111111111111111111111111111111111111111111111111111111111111111111111111111111111111111111111011111111111111111111110000101111 @"
b0 ?"
b0 >"
b0 ="
b0 <"
b0 ;"
b0 :"
b0 9"
b0 8"
b0 7"
b0 6"
b0 5"
04"
03"
b0 2"
01"
00"
b0 /"
0."
0-"
b0 ,"
bx +"
bx *"
bx )"
bx ("
b0 '"
b0 &"
b0 %"
b0 $"
b0 #"
bx ""
bx !"
bx ~
bx }
bx |
bx {
bx z
bx y
bx x
bx w
bx v
bx u
bx t
bx s
bx r
bx q
bx p
bx o
bx n
b0 m
b0 l
b0 k
b0 j
b0 i
b0 h
b0 g
b0 f
bx e
bx d
bx c
bx b
bx a
bx `
bx _
bx ^
bx ]
bx \
bx [
bx Z
bx Y
bx X
bx W
bx V
b0 U
b0 T
b0 S
bx R
b0 Q
b0 P
b0 O
b0 N
b0 M
b0 L
b0 K
b0 J
b0 I
b0 H
bx G
b0 F
xE
xD
xC
bx B
0A
bx @
bx ?
bx >
x=
bx <
bx ;
bx :
bx 9
bx 8
bx 7
bx 6
bx 5
x4
13
bx 2
01
00
0/
0.
0-
0,
0+
0*
0)
0(
b0 '
b0 &
0%
b0 $
0#
b0 "
0!
$end
#5000
11
#10000
01
#15000
11
#20000
01
1A
#25000
b0 G"
11"
b0 L"
1."
b0 B"
14"
11
#30000
b1 7"
01
1D
b1101111010101101101111101110111111011110101011011011111011101111110111101010110110111110111011111101111010101101101111101110111111011110101011011011111011101111110111101010110110111110111011111101111010101101101111101110111111011110101011011011111011101111 ;
b1101111010101101101111101110111111011110101011011011111011101111110111101010110110111110111011111101111010101101101111101110111111011110101011011011111011101111110111101010110110111110111011111101111010101101101111101110111111011110101011011011111011101111 *"
b1001000110100010101100111100010010000101010111100110111101111000100100011010001010110011110001001000010101011110011011110111100010010001101000101011001111000100100001010101111001101111011110001001000110100010101100111100010010000101010111100110111101111 >
b1001000110100010101100111100010010000101010111100110111101111000100100011010001010110011110001001000010101011110011011110111100010010001101000101011001111000100100001010101111001101111011110001001000110100010101100111100010010000101010111100110111101111 +"
b100100011010001010110011110001001101010111100110111101111000000010010001101000101011001111000100110101011110011011110111100000001001000110100010101100111100010011010101111001101111011110000000100100011010001010110011110001001101010111100110111101111 :
b100100011010001010110011110001001101010111100110111101111000000010010001101000101011001111000100110101011110011011110111100000001001000110100010101100111100010011010101111001101111011110000000100100011010001010110011110001001101010111100110111101111 )"
b1101111010101101101111101110111111011110101011011011111011101111110111101010110110111110111011111101111010101101101111101110111111011110101011011011111011101111110111101010110110111110111011111101111010101101101111101110111111011110101011011011111011101111 2
b1101111010101101101111101110111111011110101011011011111011101111110111101010110110111110111011111101111010101101101111101110111111011110101011011011111011101111110111101010110110111110111011111101111010101101101111101110111111011110101011011011111011101111 R
03
#35000
b1101111010101101101111101110111111011110101011011011111011101111110111101010110110111110111011111101111010101101101111101110111111011110101011011011111011101111110111101010110110111110111011111101111010101101101111101110111111011110101011011011111011101111 U
04"
13"
b1 K"
b1 E"
b1 ;"
1/
b0 ]
bx0000000000000000000000000 Z
b100000000000000 W
b1 V
b1110 X
b1110 ^
b1 \
b101 a
b101 `
b11000 _
b0 Y
b0 [
11
#40000
01
0D
#45000
b1101111010101101101111101110111111011110101011011011111011101111110111101010110110111110111011111101111010101101101111101110111111011110101011011011111011101111110111101010110110111110111011111101111010101101101111101110111111011110000000000000000000001001 S
b1 5"
b10 E"
b10 K"
03"
14"
b1101111010101101101111101110111111011110101011011011111011101111110111101010110110111110111011111101111010101101101111101110111111011110101011011011111011101111110111101010110110111110111011111101111010101101101111101110111111011110101011011011111011101111 U
b1101111010101101101111101110111111011110101011011011111011101111110111101010110110111110111011111101111010101101101111101110111111011110101011011011111011101111110111101010110110111110111011111101111010101101101111101110111111011110000000000000000000001001 ]
b0 V
b0 \
bx0000000000000000000000001 Z
b0 W
b1110 X
b1110 ^
b101 a
b101 `
b11000 _
b1101111010101101101111101110111111011110101011011011111011101111110111101010110110111110111011111101111010101101101111101110111111011110101011011011111011101111110111101010110110111110111011111101111010101101101111101110111111011110000000000000000000001001 Y
b1101111010101101101111101110111111011110101011011011111011101111110111101010110110111110111011111101111010101101101111101110111111011110101011011011111011101111110111101010110110111110111011111101111010101101101111101110111111011110101011011011111011101111 [
11
#50000
01
b1001000110100010101100111100010010000101010111100110111101111000100100011010001010110011110001001000010101011110011011110111100010010001101000101011001111000100100001010101111001101111011110001001000110100010101100111100010010000101010111100110111101111 2
b1001000110100010101100111100010010000101010111100110111101111000100100011010001010110011110001001000010101011110011011110111100010010001101000101011001111000100100001010101111001101111011110001001000110100010101100111100010010000101010111100110111101111 R
#55000
b1101111010101101101111101110111111011110101011011011111011101111110111101010110110111110111011111101111010101101101111101110111111011110101011011011111011101111110111101010110110111110111011111101111010101101101111101110111111011110000000000000000000001001 '
b1101111010101101101111101110111111011110101011011011111011101111110111101010110110111110111011111101111010101101101111101110111111011110101011011011111011101111110111101010110110111110111011111101111010101101101111101110111111011110000000000000000000001001 T
04"
13"
b11 K"
b11 E"
b10 5"
b1001000110100010101100111100010010000101010111100110111101111000100100011010001010110011110001001000010101011110011011110111100010010001101000101011001111000100100001010101111001101111011110001001000110100010101100111100010010000101010111100110111101111 U
bx0000000000000000000000001 Z
b0 W
b0 V
b1110 X
b1110 ^
b0 \
b101 a
b101 `
b11000 _
b1101111010101101101111101110111111011110101011011011111011101111110111101010110110111110111011111101111010101101101111101110111111011110101011011011111011101111110111101010110110111110111011111101111010101101101111101110111111011110000000000000000000001001 Y
11
#60000
01
#65000
b1001000110100010101100111100010010000101010111100110111101111000100100011010001010110011110001001000010101011110011011110111100010010001101000101011001111000100100001010101111001101111011110001001000110100010101100111100010010000000000000000000000001001 S
b11 5"
b100 E"
b100 K"
03"
14"
b1001000110100010101100111100010010000101010111100110111101111000100100011010001010110011110001001000010101011110011011110111100010010001101000101011001111000100100001010101111001101111011110001001000110100010101100111100010010000101010111100110111101111 U
b1001000110100010101100111100010010000101010111100110111101111000100100011010001010110011110001001000010101011110011011110111100010010001101000101011001111000100100001010101111001101111011110001001000110100010101100111100010010000000000000000000000001001 ]
bx0000000000000000000000001 Z
b0 W
b0 V
b1110 X
b1110 ^
b0 \
b101 a
b101 `
b11000 _
b1001000110100010101100111100010010000101010111100110111101111000100100011010001010110011110001001000010101011110011011110111100010010001101000101011001111000100100001010101111001101111011110001001000110100010101100111100010010000000000000000000000001001 Y
b1001000110100010101100111100010010000101010111100110111101111000100100011010001010110011110001001000010101011110011011110111100010010001101000101011001111000100100001010101111001101111011110001001000110100010101100111100010010000101010111100110111101111 [
b1 H
11
#70000
01
b0 2
b0 R
#75000
b1001000110100010101100111100010010000101010111100110111101111000100100011010001010110011110001001000010101011110011011110111100010010001101000101011001111000100100001010101111001101111011110001001000110100010101100111100010010000000000000000000000001001 '
b1001000110100010101100111100010010000101010111100110111101111000100100011010001010110011110001001000010101011110011011110111100010010001101000101011001111000100100001010101111001101111011110001001000110100010101100111100010010000000000000000000000001001 T
04"
13"
b101 K"
b101 E"
b100 5"
b0 U
bx0000000000000000000000001 Z
b0 W
b0 V
b1110 X
b1110 ^
b0 \
b101 a
b101 `
b11000 _
b1001000110100010101100111100010010000101010111100110111101111000100100011010001010110011110001001000010101011110011011110111100010010001101000101011001111000100100001010101111001101111011110001001000110100010101100111100010010000000000000000000000001001 Y
b10 H
11
#80000
b1 T"
01
1E
b100100000111010110110100111011100100110101000111100010001100101010111011010010011111011111111000000111000010001000010001010100011111101000101111011010001001000101001101000010101010100000110011001110001000111110100001000111111111011000100001101010010111000 @
b100100000111010110110100111011100100110101000111100010001100101010111011010010011111011111111000000111000010001000010001010100011111101000101111011010001001000101001101000010101010100000110011001110001000111110100001000111111111011000100001101010010111000 P"
b111100110111110011001100111111011111001110111001011101110101100010101011010000001100010100101011100111010000111000010110000011100000010100110111111110011011011001011011100111000101000110110010101100111110010100000010101101100010110111110000001011110011000 ?
b111100110111110011001100111111011111001110111001011101110101100010101011010000001100010100101011100111010000111000010110000011100000010100110111111110011011011001011011100111000101000110110010101100111110010100000010101101100010110111110000001011110011000 O"
b0 B
b0 Q"
b100100011010001010110011110001001101010111100110111101111000000010010001101000101011001111000100110101011110011011110111100000001001000110100010101100111100010011010101111001101111011110000000100100011010001010110011110001001101010111100110111101111 9
b100100011010001010110011110001001101010111100110111101111000000010010001101000101011001111000100110101011110011011110111100000001001000110100010101100111100010011010101111001101111011110000000100100011010001010110011110001001101010111100110111101111 N"
#85000
b111 T"
b0 S
1.
b1 Y"
b101 5"
b110 E"
b110 K"
03"
14"
b0 ]
b100000000000000 W
b1 V
b1 \
bx0000000000000000000000000 Z
b1110 X
b1110 ^
b101 a
b101 `
b11000 _
b0 Y
b0 [
b11 H
11
#90000
b111 T"
01
0E
b11111111111111111111111111111111111111111111111111111111111111111111111111111111111111111111111111111111111111111111111111111111111111111111111111111111111111111111111111111111111111111111111111111111111111111111111111111111111111111111111111111111111111111111111111111111111111111111111111111111111111111111111111111111111111111111111111111111111111111111111111111111111111111111111111111111111111111111111111111111111111111111111111111111111111111111111111111111111111111111111111111111111111111111111111111111 2
b11111111111111111111111111111111111111111111111111111111111111111111111111111111111111111111111111111111111111111111111111111111111111111111111111111111111111111111111111111111111111111111111111111111111111111111111111111111111111111111111111111111111111111111111111111111111111111111111111111111111111111111111111111111111111111111111111111111111111111111111111111111111111111111111111111111111111111111111111111111111111111111111111111111111111111111111111111111111111111111111111111111111111111111111111111111 R
#95000
b0 T"
b0 '
b0 T
b11111111111111111111111111111111111111111111111111111111111111111111111111111111111111111111111111111111111111111111111111111111111111111111111111111111111111111111111111111111111111111111111111111111111111111111111111111111111111111111111111111111111111111111111111111111111111111111111111111111111111111111111111111111111111111111111111111111111111111111111111111111111111111111111111111111111111111111111111111111111111111111111111111111111111111111111111111111111111111111111111111111111111111111111111111111 U
04"
13"
b111 K"
b111 E"
b110 5"
b1 R"
b111 Y"
bx0000000000000000000000000 Z
b0 Y
b100000000000000 W
b1 V
b1110 X
b1110 ^
b1 \
b101 a
b101 `
b11000 _
b100 H
11
#100000
01
#105000
b1 F
b1 P
b1111111111111111111111111111111111111111111111111111111111111111111111111111111111111111111111111111111111111111111111111111111111111111111111111111111111111111111111111111111111111111111111111111111111111111111111111111111111111110000000000000000000000000 S
1(
0.
b10 R"
b0 Y"
b111 5"
b1000 E"
b1000 K"
03"
14"
b11111111111111111111111111111111111111111111111111111111111111111111111111111111111111111111111111111111111111111111111111111111111111111111111111111111111111111111111111111111111111111111111111111111111111111111111111111111111111111111111111111111111111111111111111111111111111111111111111111111111111111111111111111111111111111111111111111111111111111111111111111111111111111111111111111111111111111111111111111111111111111111111111111111111111111111111111111111111111111111111111111111111111111111111111111111 U
b11111111111111111111111111111111111111111111111111111111111111111111111111111111111111111111111111111111111111111111111111111111111111111111111111111111111111111111111111111111111111111111111111111111111111111111111111111111111111111111111111111111111111111111111111111111111111111111111111111111111111111111111111111111111111111111111111111111111111111111111111111111111111111111111111111111111111111111111111111111111111111111111111111111111111111111111111111111111111111111111111111110000000000000000000000000 ]
bx0000000000000000000000000 Z
b100000000000000 W
b1 V
b1110 X
b1110 ^
b1 \
b101 a
b101 `
b11000 _
b11111111111111111111111111111111111111111111111111111111111111111111111111111111111111111111111111111111111111111111111111111111111111111111111111111111111111111111111111111111111111111111111111111111111111111111111111111111111111111111111111111111111111111111111111111111111111111111111111111111111111111111111111111111111111111111111111111111111111111111111111111111111111111111111111111111111111111111111111111111111111111111111111111111111111111111111111111111111111111111111111111110000000000000000000000000 Y
b11111111111111111111111111111111111111111111111111111111111111111111111111111111111111111111111111111111111111111111111111111111111111111111111111111111111111111111111111111111111111111111111111111111111111111111111111111111111111111111111111111111111111111111111111111111111111111111111111111111111111111111111111111111111111111111111111111111111111111111111111111111111111111111111111111111111111111111111111111111111111111111111111111111111111111111111111111111111111111111111111111111111111111111111111111111 [
11
#110000
01
b10010000101010011010100100100 2
b10010000101010011010100100100 R
b0 G
#115000
b1111111111111111111111111111111111111111111111111111111111111111111111111111111111111111111111111111111111111111111111111111111111111111111111111111111111111111111111111111111111111111111111111111111111111111111111111111111111111110000000000000000000000000 '
b1111111111111111111111111111111111111111111111111111111111111111111111111111111111111111111111111111111111111111111111111111111111111111111111111111111111111111111111111111111111111111111111111111111111111111111111111111111111111110000000000000000000000000 T
04"
13"
b1001 K"
b1001 E"
b1000 5"
b0 R"
0(
b10010000101010011010100100100 U
bx0000000000000000000000000 Z
b100000000000000 W
b1 V
b1110 X
b1110 ^
b1 \
b101 a
b101 `
b11000 _
b11111111111111111111111111111111111111111111111111111111111111111111111111111111111111111111111111111111111111111111111111111111111111111111111111111111111111111111111111111111111111111111111111111111111111111111111111111111111111111111111111111111111111111111111111111111111111111111111111111111111111111111111111111111111111111111111111111111111111111111111111111111111111111111111111111111111111111111111111111111111111111111111111111111111111111111111111111111111111111111111111111110000000000000000000000000 Y
11
#120000
01
#125000
b10010000000000000000000000000 S
1.
b1 Y"
b1001 5"
b1010 E"
b1010 K"
03"
14"
b10010000101010011010100100100 U
b10010000000000000000000000000 ]
bx0000000000000000000000000 Z
b100000000000000 W
b1 V
b1110 X
b1110 ^
b1 \
b101 a
b101 `
b11000 _
b10010000000000000000000000000 Y
b10010000101010011010100100100 [
b101 H
b111 T"
11
1E
b0 @
b0 P"
b0 ?
b0 O"
b0 9
b0 N"
#130000
01
b11111111111111111111111111111111111111111111111111111111111111111111111111111111111111111111111111111111111111111111111111111111111111111111111111111111111111111111111111111111111111111111111111111111111111111111111111111111111111111111111111111111111111111111111111111111111111111111111111111111111111111111111111111111111111111111111111111111111111111111111111111111111111111111111111111111111111111111111111111111111111111111111111111111111111111111111111111111111111111111111111000000100010010101111010000001 2
b11111111111111111111111111111111111111111111111111111111111111111111111111111111111111111111111111111111111111111111111111111111111111111111111111111111111111111111111111111111111111111111111111111111111111111111111111111111111111111111111111111111111111111111111111111111111111111111111111111111111111111111111111111111111111111111111111111111111111111111111111111111111111111111111111111111111111111111111111111111111111111111111111111111111111111111111111111111111111111111111111000000100010010101111010000001 R
b1 G
#135000
b10010000000000000000000000000 '
b10010000000000000000000000000 T
04"
13"
0."
1-"
b1011 K"
b1011 E"
b1010 5"
b1 R"
b111 Y"
b11111111111111111111111111111111111111111111111111111111111111111111111111111111111111111111111111111111111111111111111111111111111111111111111111111111111111111111111111111111111111111111111111111111111111111111111111111111111111111111111111111111111111111111111111111111111111111111111111111111111111111111111111111111111111111111111111111111111111111111111111111111111111111111111111111111111111111111111111111111111111111111111111111111111111111111111111111111111111111111111111000000100010010101111010000001 U
bx0000000000000000000000000 Z
b100000000000000 W
b1 V
b1110 X
b1110 ^
b1 \
b101 a
b101 `
b11000 _
b10010000000000000000000000000 Y
b110 H
b0 T"
11
0E
#140000
01
#145000
b10 F
b10 P
b1111111111111111111111111111111111111111111111111111111111111111111111111111111111111111111111111111111111111111111111111111111111111111111111111111111111111111111111111111111111111111111111111111111111111111111111111111111111000000000000000000000000000000 S
1(
0.
b10 R"
b0 Y"
b1011 5"
b1100 E"
b0 K"
0-"
1."
03"
14"
b11111111111111111111111111111111111111111111111111111111111111111111111111111111111111111111111111111111111111111111111111111111111111111111111111111111111111111111111111111111111111111111111111111111111111111111111111111111111111111111111111111111111111111111111111111111111111111111111111111111111111111111111111111111111111111111111111111111111111111111111111111111111111111111111111111111111111111111111111111111111111111111111111111111111111111111111111111111111111111111111111000000100010010101111010000001 U
b11111111111111111111111111111111111111111111111111111111111111111111111111111111111111111111111111111111111111111111111111111111111111111111111111111111111111111111111111111111111111111111111111111111111111111111111111111111111111111111111111111111111111111111111111111111111111111111111111111111111111111111111111111111111111111111111111111111111111111111111111111111111111111111111111111111111111111111111111111111111111111111111111111111111111111111111111111111111111111111111111000000000000000000000000000000 ]
bx0000000000000000000000000 Z
b100000000000000 W
b1 V
b1110 X
b1110 ^
b1 \
b101 a
b101 `
b11000 _
b11111111111111111111111111111111111111111111111111111111111111111111111111111111111111111111111111111111111111111111111111111111111111111111111111111111111111111111111111111111111111111111111111111111111111111111111111111111111111111111111111111111111111111111111111111111111111111111111111111111111111111111111111111111111111111111111111111111111111111111111111111111111111111111111111111111111111111111111111111111111111111111111111111111111111111111111111111111111111111111111111000000000000000000000000000000 Y
b11111111111111111111111111111111111111111111111111111111111111111111111111111111111111111111111111111111111111111111111111111111111111111111111111111111111111111111111111111111111111111111111111111111111111111111111111111111111111111111111111111111111111111111111111111111111111111111111111111111111111111111111111111111111111111111111111111111111111111111111111111111111111111111111111111111111111111111111111111111111111111111111111111111111111111111111111111111111111111111111111000000100010010101111010000001 [
b111 H
11
#150000
b1 h
01
b11111111111111111111111111111111111111111111111111111111111111111111111111111111111111111111111111111111111111111111111111111111111111111111111111111111111111111111111111111111111111111111111111111111111111111111111111111111111111111111111111111111111111111111111111111111111111111111111111111111111111111111111111111111111111111111111111111111111111111111111111111111111111111111111111111111111111111111111111111111111111111111111111111111111111111111111111111111111111111111111110000100100001001101011000001001 2
b11111111111111111111111111111111111111111111111111111111111111111111111111111111111111111111111111111111111111111111111111111111111111111111111111111111111111111111111111111111111111111111111111111111111111111111111111111111111111111111111111111111111111111111111111111111111111111111111111111111111111111111111111111111111111111111111111111111111111111111111111111111111111111111111111111111111111111111111111111111111111111111111111111111111111111111111111111111111111111111111110000100100001001101011000001001 R
b10 G
1C
b0 8
b0 e
b1011 7
b1011 d
b111 6
b111 c
b101 5
b101 b
#155000
b1111111111111111111111111111111111111111111111111111111111111111111111111111111111111111111111111111111111111111111111111111111111111111111111111111111111111111111111111111111111111111111111111111111111111111111111111111111111000000000000000000000000000000 '
b1111111111111111111111111111111111111111111111111111111111111111111111111111111111111111111111111111111111111111111111111111111111111111111111111111111111111111111111111111111111111111111111111111111111111111111111111111111111000000000000000000000000000000 T
04"
13"
b1 K"
b1101 E"
b1100 5"
b0 R"
0(
b1 j
b111 m
b101 l
10
b11111111111111111111111111111111111111111111111111111111111111111111111111111111111111111111111111111111111111111111111111111111111111111111111111111111111111111111111111111111111111111111111111111111111111111111111111111111111111111111111111111111111111111111111111111111111111111111111111111111111111111111111111111111111111111111111111111111111111111111111111111111111111111111111111111111111111111111111111111111111111111111111111111111111111111111111111111111111111111111111110000100100001001101011000001001 U
bx0000000000000000000000000 Z
b100000000000000 W
b1 V
b1110 X
b1110 ^
b1 \
b101 a
b101 `
b11000 _
b11111111111111111111111111111111111111111111111111111111111111111111111111111111111111111111111111111111111111111111111111111111111111111111111111111111111111111111111111111111111111111111111111111111111111111111111111111111111111111111111111111111111111111111111111111111111111111111111111111111111111111111111111111111111111111111111111111111111111111111111111111111111111111111111111111111111111111111111111111111111111111111111111111111111111111111111111111111111111111111111111000000000000000000000000000000 Y
b1000 H
11
#160000
01
0C
