1. Verilog_Chip_Core/testbench/ecdsa_simple_tb.vcd
$date
	Thu Jun 26 03:34:16 2025
$end
$version
	Icarus Verilog
$end
$timescale
	1ps
$end
$scope module ecdsa_simple_tb $end
$var wire 520 ! sig_out [519:0] $end
$var wire 1 " error $end
$var wire 1 # done $end
$var wire 1 $ busy $end
$var reg 1 % clk $end
$var reg 256 & msg_in [255:0] $end
$var reg 256 ' nonce [255:0] $end
$var reg 256 ( priv_key [255:0] $end
$var reg 1 ) rst_n $end
$var reg 1 * start $end
$var integer 32 + i [31:0] $end
$scope module ecdsa_inst $end
$var wire 1 % clk $end
$var wire 256 , msg_in [255:0] $end
$var wire 256 - nonce [255:0] $end
$var wire 256 . priv_key [255:0] $end
$var wire 1 ) rst_n $end
$var wire 1 * start $end
$var wire 256 / mod_mul_result [255:0] $end
$var wire 1 0 mod_mul_error $end
$var wire 1 1 mod_mul_done $end
$var wire 1 2 mod_mul_busy $end
$var wire 256 3 mod_inv_result [255:0] $end
$var wire 1 4 mod_inv_error $end
$var wire 1 5 mod_inv_done $end
$var wire 1 6 mod_inv_busy $end
$var wire 256 7 mod_add_result [255:0] $end
$var wire 1 8 mod_add_error $end
$var wire 1 9 mod_add_done $end
$var wire 1 : mod_add_busy $end
$var wire 256 ; ec_y [255:0] $end
$var wire 256 < ec_x [255:0] $end
$var wire 1 = ec_error $end
$var wire 1 > ec_done $end
$var wire 1 ? ec_busy $end
$var reg 1 $ busy $end
$var reg 16 @ cycle_count [15:0] $end
$var reg 1 # done $end
$var reg 1 " error $end
$var reg 256 A k_inv [255:0] $end
$var reg 4 B next_state [3:0] $end
$var reg 256 C r [255:0] $end
$var reg 256 D rx [255:0] $end
$var reg 256 E ry [255:0] $end
$var reg 256 F s [255:0] $end
$var reg 520 G sig_out [519:0] $end
$var reg 4 H state [3:0] $end
$var reg 256 I temp_result [255:0] $end
$var reg 8 J v [7:0] $end
$scope module ec_mult $end
$var wire 1 % clk $end
$var wire 256 K k [255:0] $end
$var wire 1 ) rst_n $end
$var wire 1 L start $end
$var wire 256 M mod_sub_result [255:0] $end
$var wire 1 N mod_sub_done $end
$var wire 1 O mod_sub_busy $end
$var wire 256 P mod_mul_result [255:0] $end
$var wire 1 Q mod_mul_done $end
$var wire 1 R mod_mul_busy $end
$var wire 256 S mod_inv_result [255:0] $end
$var wire 1 T mod_inv_done $end
$var wire 1 U mod_inv_busy $end
$var wire 256 V mod_add_result [255:0] $end
$var wire 1 W mod_add_done $end
$var wire 1 X mod_add_busy $end
$var reg 8 Y bit_count [7:0] $end
$var reg 1 ? busy $end
$var reg 1 > done $end
$var reg 1 = error $end
$var reg 256 Z k_reg [255:0] $end
$var reg 256 [ lambda [255:0] $end
$var reg 256 \ px [255:0] $end
$var reg 256 ] py [255:0] $end
$var reg 256 ^ qx [255:0] $end
$var reg 256 _ qy [255:0] $end
$var reg 3 ` state [2:0] $end
$var reg 256 a temp_x [255:0] $end
$var reg 256 b temp_y [255:0] $end
$var reg 256 c x [255:0] $end
$var reg 256 d y [255:0] $end
$scope module mod_add $end
$var wire 256 e a [255:0] $end
$var wire 256 f b [255:0] $end
$var wire 1 % clk $end
$var wire 256 g modulus [255:0] $end
$var wire 1 ) rst_n $end
$var wire 1 X start $end
$var reg 1 X busy $end
$var reg 1 W done $end
$var reg 1 h error $end
$var reg 256 i result [255:0] $end
$var reg 257 j sum [256:0] $end
$var reg 256 k temp_a [255:0] $end
$var reg 256 l temp_b [255:0] $end
$var reg 256 m temp_mod [255:0] $end
$upscope $end
$scope module mod_inv $end
$var wire 256 n a [255:0] $end
$var wire 1 % clk $end
$var wire 256 o modulus [255:0] $end
$var wire 1 ) rst_n $end
$var wire 1 U start $end
$var reg 1 U busy $end
$var reg 8 p count [7:0] $end
$var reg 1 T done $end
$var reg 1 q error $end
$var reg 256 r result [255:0] $end
$var reg 256 s u [255:0] $end
$var reg 256 t v [255:0] $end
$var reg 256 u x1 [255:0] $end
$var reg 256 v x2 [255:0] $end
$upscope $end
$scope module mod_mul $end
$var wire 256 w a [255:0] $end
$var wire 256 x b [255:0] $end
$var wire 1 % clk $end
$var wire 256 y modulus [255:0] $end
$var wire 1 ) rst_n $end
$var wire 1 R start $end
$var reg 1 R busy $end
$var reg 9 z count [8:0] $end
$var reg 1 Q done $end
$var reg 1 { error $end
$var reg 256 | partial_result [255:0] $end
$var reg 512 } product [511:0] $end
$var reg 256 ~ result [255:0] $end
$var reg 256 !" temp_a [255:0] $end
$var reg 256 "" temp_b [255:0] $end
$var reg 256 #" temp_mod [255:0] $end
$upscope $end
$scope module mod_sub $end
$var wire 256 $" a [255:0] $end
$var wire 256 %" b [255:0] $end
$var wire 1 % clk $end
$var wire 256 &" modulus [255:0] $end
$var wire 1 ) rst_n $end
$var wire 1 O start $end
$var reg 1 O busy $end
$var reg 256 '" diff [255:0] $end
$var reg 1 N done $end
$var reg 1 (" error $end
$var reg 256 )" result [255:0] $end
$var reg 256 *" temp_a [255:0] $end
$var reg 256 +" temp_b [255:0] $end
$var reg 256 ," temp_mod [255:0] $end
$upscope $end
$upscope $end
$scope module mod_adder $end
$var wire 256 -" a [255:0] $end
$var wire 256 ." b [255:0] $end
$var wire 1 % clk $end
$var wire 256 /" modulus [255:0] $end
$var wire 1 ) rst_n $end
$var wire 1 0" start $end
$var reg 1 : busy $end
$var reg 1 9 done $end
$var reg 1 8 error $end
$var reg 256 1" result [255:0] $end
$var reg 257 2" sum [256:0] $end
$var reg 256 3" temp_a [255:0] $end
$var reg 256 4" temp_b [255:0] $end
$var reg 256 5" temp_mod [255:0] $end
$upscope $end
$scope module mod_inverse $end
$var wire 256 6" a [255:0] $end
$var wire 1 % clk $end
$var wire 256 7" modulus [255:0] $end
$var wire 1 ) rst_n $end
$var wire 1 8" start $end
$var reg 1 6 busy $end
$var reg 8 9" count [7:0] $end
$var reg 1 5 done $end
$var reg 1 4 error $end
$var reg 256 :" result [255:0] $end
$var reg 256 ;" u [255:0] $end
$var reg 256 <" v [255:0] $end
$var reg 256 =" x1 [255:0] $end
$var reg 256 >" x2 [255:0] $end
$upscope $end
$scope module mod_multiplier $end
$var wire 256 ?" a [255:0] $end
$var wire 256 @" b [255:0] $end
$var wire 1 % clk $end
$var wire 256 A" modulus [255:0] $end
$var wire 1 ) rst_n $end
$var wire 1 B" start $end
$var reg 1 2 busy $end
$var reg 9 C" count [8:0] $end
$var reg 1 1 done $end
$var reg 1 0 error $end
$var reg 256 D" partial_result [255:0] $end
$var reg 512 E" product [511:0] $end
$var reg 256 F" result [255:0] $end
$var reg 256 G" temp_a [255:0] $end
$var reg 256 H" temp_b [255:0] $end
$var reg 256 I" temp_mod [255:0] $end
$upscope $end
$upscope $end
$upscope $end
$enddefinitions $end
#0
$dumpvars
b0 I"
b0 H"
b0 G"
b0 F"
b0 E"
b0 D"
b0 C"
0B"
b1111111111111111111111111111111111111111111111111111111111111111111111111111111111111111111111111111111111111111111111111111111010111010101011101101110011100110101011110100100010100000001110111011111111010010010111101000110011010000001101100100000101000001 A"
b0 @"
b0 ?"
b0 >"
b0 ="
b0 <"
b0 ;"
b0 :"
b0 9"
08"
b1111111111111111111111111111111111111111111111111111111111111111111111111111111111111111111111111111111111111111111111111111111010111010101011101101110011100110101011110100100010100000001110111011111111010010010111101000110011010000001101100100000101000001 7"
b0 6"
b0 5"
b0 4"
b0 3"
b0 2"
b0 1"
00"
b1111111111111111111111111111111111111111111111111111111111111111111111111111111111111111111111111111111111111111111111111111111010111010101011101101110011100110101011110100100010100000001110111011111111010010010111101000110011010000001101100100000101000001 /"
b0 ."
b0 -"
b0 ,"
b0 +"
b0 *"
b0 )"
0("
b0 '"
b1111111111111111111111111111111111111111111111111111111111111111111111111111111111111111111111111111111111111111111111111111111111111111111111111111111111111111111111111111111111111111111111111111111111111111111111111111111011111111111111111111110000101111 &"
b0 %"
b0 $"
b0 #"
b0 ""
b0 !"
b0 ~
b0 }
b0 |
0{
b0 z
b1111111111111111111111111111111111111111111111111111111111111111111111111111111111111111111111111111111111111111111111111111111111111111111111111111111111111111111111111111111111111111111111111111111111111111111111111111111011111111111111111111110000101111 y
bx x
bx w
b0 v
b0 u
b0 t
b0 s
b0 r
0q
b0 p
b1111111111111111111111111111111111111111111111111111111111111111111111111111111111111111111111111111111111111111111111111111111111111111111111111111111111111111111111111111111111111111111111111111111111111111111111111111111011111111111111111111110000101111 o
bx n
b0 m
b0 l
b0 k
b0 j
b0 i
0h
b1111111111111111111111111111111111111111111111111111111111111111111111111111111111111111111111111111111111111111111111111111111111111111111111111111111111111111111111111111111111111111111111111111111111111111111111111111111011111111111111111111110000101111 g
b0 f
b0 e
b0 d
b0 c
bx b
bx a
b0 `
b0 _
b0 ^
b0 ]
b0 \
bx [
b0 Z
b0 Y
0X
0W
b0 V
0U
0T
b0 S
0R
0Q
b0 P
0O
0N
b0 M
0L
b0 K
b0 J
b0 I
b0 H
b0 G
b0 F
b0 E
b0 D
b0 C
b0 B
b0 A
b0 @
0?
0>
0=
b0 <
b0 ;
0:
09
08
b0 7
06
05
04
b0 3
02
01
00
b0 /
b0 .
b0 -
b0 ,
bx +
0*
0)
b0 (
b0 '
b0 &
0%
0$
0#
0"
b0 !
$end
#5000
1%
#10000
0%
#15000
1%
#20000
0%
1)
#25000
1%
#30000
b1 B
0%
1*
b1111111011011100101110100000100110000111011001010100001100100001111111101101110010111010000010011000011101100101010000110010000111111110110111001011101000001001100001110110010101000011001000011111111011011100101110100000100110000111011001010100001100100001 '
b1111111011011100101110100000100110000111011001010100001100100001111111101101110010111010000010011000011101100101010000110010000111111110110111001011101000001001100001110110010101000011001000011111111011011100101110100000100110000111011001010100001100100001 -
b1111111011011100101110100000100110000111011001010100001100100001111111101101110010111010000010011000011101100101010000110010000111111110110111001011101000001001100001110110010101000011001000011111111011011100101110100000100110000111011001010100001100100001 K
b1111111011011100101110100000100110000111011001010100001100100001111111101101110010111010000010011000011101100101010000110010000111111110110111001011101000001001100001110110010101000011001000011111111011011100101110100000100110000111011001010100001100100001 6"
b1010000110110010110000111101010011100101111101100111100010010000000100100011010001010110011110001001000000010010001101000101011001111000100100001010101111001101111011110001001000110100010101100111100010010000101010111100110111101111000100100011010001010110 (
b1010000110110010110000111101010011100101111101100111100010010000000100100011010001010110011110001001000000010010001101000101011001111000100100001010101111001101111011110001001000110100010101100111100010010000101010111100110111101111000100100011010001010110 .
b101101001011011010111000101110100000000000000000000000000000000000000000000000000000000000000000000000000000000000000000000000000000000000000000000000000000000000000000000000000000000000000000000000000000000000000000000000000000000000000000000000000000000 &
b101101001011011010111000101110100000000000000000000000000000000000000000000000000000000000000000000000000000000000000000000000000000000000000000000000000000000000000000000000000000000000000000000000000000000000000000000000000000000000000000000000000000000 ,
b101101001011011010111000101110100000000000000000000000000000000000000000000000000000000000000000000000000000000000000000000000000000000000000000000000000000000000000000000000000000000000000000000000000000000000000000000000000000000000000000000000000000000 -"
b100000 +
#35000
1L
b1 H
1$
1%
#40000
0%
0*
#45000
b1 @
b100100000111010110110100111011100100110101000111100010001100101010111011010010011111011111111000000111000010001000010001010100011111101000101111011010001001000101001101000010101010100000110011001110001000111110100001000111111111011000100001101010010111000 ]
b100100000111010110110100111011100100110101000111100010001100101010111011010010011111011111111000000111000010001000010001010100011111101000101111011010001001000101001101000010101010100000110011001110001000111110100001000111111111011000100001101010010111000 $"
b111100110111110011001100111111011111001110111001011101110101100010101011010000001100010100101011100111010000111000010110000011100000010100110111111110011011011001011011100111000101000110110010101100111110010100000010101101100010110111110000001011110011000 \
b111100110111110011001100111111011111001110111001011101110101100010101011010000001100010100101011100111010000111000010110000011100000010100110111111110011011011001011011100111000101000110110010101100111110010100000010101101100010110111110000001011110011000 e
b1111111011011100101110100000100110000111011001010100001100100001111111101101110010111010000010011000011101100101010000110010000111111110110111001011101000001001100001110110010101000011001000011111111011011100101110100000100110000111011001010100001100100001 Z
1?
b1 `
1%
#50000
0%
#55000
b10 `
b10 @
1%
#60000
0%
#65000
b11 @
b1 Y
bx ]
bx $"
bx \
bx e
b0 [
b0 w
b0 x
b100100000111010110110100111011100100110101000111100010001100101010111011010010011111011111111000000111000010001000010001010100011111101000101111011010001001000101001101000010101010100000110011001110001000111110100001000111111111011000100001101010010111000 _
b100100000111010110110100111011100100110101000111100010001100101010111011010010011111011111111000000111000010001000010001010100011111101000101111011010001001000101001101000010101010100000110011001110001000111110100001000111111111011000100001101010010111000 %"
b111100110111110011001100111111011111001110111001011101110101100010101011010000001100010100101011100111010000111000010110000011100000010100110111111110011011011001011011100111000101000110110010101100111110010100000010101101100010110111110000001011110011000 ^
b111100110111110011001100111111011111001110111001011101110101100010101011010000001100010100101011100111010000111000010110000011100000010100110111111110011011011001011011100111000101000110110010101100111110010100000010101101100010110111110000001011110011000 f
1%
#70000
0%
#75000
b10 Y
bx _
bx %"
bx ^
bx f
b100 @
1%
#80000
0%
#85000
b101 @
b11 Y
1%
#90000
0%
#95000
b100 Y
b110 @
1%
#100000
0%
#105000
b111 @
b101 Y
1%
#110000
0%
#115000
b110 Y
b1000 @
1%
#120000
0%
#125000
b1001 @
b111 Y
1%
#130000
0%
#135000
b1000 Y
b1010 @
1%
#140000
0%
#145000
b1011 @
b1001 Y
1%
#150000
0%
#155000
b1010 Y
b1100 @
1%
#160000
0%
#165000
b1101 @
b1011 Y
1%
#170000
0%
#175000
b1100 Y
b1110 @
1%
#180000
0%
#185000
b1111 @
b1101 Y
1%
#190000
0%
#195000
b1110 Y
b10000 @
1%
#200000
0%
#205000
b10001 @
b1111 Y
1%
#210000
0%
#215000
b10000 Y
b10010 @
1%
#220000
0%
#225000
b10011 @
b10001 Y
1%
#230000
0%
#235000
b10010 Y
b10100 @
1%
#240000
0%
#245000
b10101 @
b10011 Y
1%
#250000
0%
#255000
b10100 Y
b10110 @
1%
#260000
0%
#265000
b10111 @
b10101 Y
1%
#270000
0%
#275000
b10110 Y
b11000 @
1%
#280000
0%
#285000
b11001 @
b10111 Y
1%
#290000
0%
#295000
b11000 Y
b11010 @
1%
#300000
0%
#305000
b11011 @
b11001 Y
1%
#310000
0%
#315000
b11010 Y
b11100 @
1%
#320000
0%
#325000
b11101 @
b11011 Y
1%
#330000
0%
#335000
b11100 Y
b11110 @
1%
#340000
0%
#345000
b11111 @
b11101 Y
1%
#350000
0%
#355000
b11110 Y
b100000 @
1%
#360000
0%
#365000
b100001 @
b11111 Y
1%
#370000
0%
#375000
b100000 Y
b100010 @
1%
#380000
0%
#385000
b100011 @
b100001 Y
1%
#390000
0%
#395000
b100010 Y
b100100 @
1%
#400000
0%
#405000
b100101 @
b100011 Y
1%
#410000
0%
#415000
b100100 Y
b100110 @
1%
#420000
0%
#425000
b100111 @
b100101 Y
1%
#430000
0%
#435000
b100110 Y
b101000 @
1%
#440000
0%
#445000
b101001 @
b100111 Y
1%
#450000
0%
#455000
b101000 Y
b101010 @
1%
#460000
0%
#465000
b101011 @
b101001 Y
1%
#470000
0%
#475000
b101010 Y
b101100 @
1%
#480000
0%
#485000
b101101 @
b101011 Y
1%
#490000
0%
#495000
b101100 Y
b101110 @
1%
#500000
0%
#505000
b101111 @
b101101 Y
1%
#510000
0%
#515000
b101110 Y
b110000 @
1%
#520000
0%
#525000
b110001 @
b101111 Y
1%
#530000
0%
#535000
b110000 Y
b110010 @
1%
#540000
0%
#545000
b110011 @
b110001 Y
1%
#550000
0%
#555000
b110010 Y
b110100 @
1%
#560000
0%
#565000
b110101 @
b110011 Y
1%
#570000
0%
#575000
b110100 Y
b110110 @
1%
#580000
0%
#585000
b110111 @
b110101 Y
1%
#590000
0%
#595000
b110110 Y
b111000 @
1%
#600000
0%
#605000
b111001 @
b110111 Y
1%
#610000
0%
#615000
b111000 Y
b111010 @
1%
#620000
0%
#625000
b111011 @
b111001 Y
1%
#630000
0%
#635000
b111010 Y
b111100 @
1%
#640000
0%
#645000
b111101 @
b111011 Y
1%
#650000
0%
#655000
b111100 Y
b111110 @
1%
#660000
0%
#665000
b111111 @
b111101 Y
1%
#670000
0%
#675000
b111110 Y
b1000000 @
1%
#680000
0%
#685000
b1000001 @
b111111 Y
1%
#690000
0%
#695000
b1000000 Y
b1000010 @
1%
#700000
0%
#705000
b1000011 @
b1000001 Y
1%
#710000
0%
#715000
b1000010 Y
b1000100 @
1%
#720000
0%
#725000
b1000101 @
b1000011 Y
1%
#730000
0%
#735000
b1000100 Y
b1000110 @
1%
#740000
0%
#745000
b1000111 @
b1000101 Y
1%
#750000
0%
#755000
b1000110 Y
b1001000 @
1%
#760000
0%
#765000
b1001001 @
b1000111 Y
1%
#770000
0%
#775000
b1001000 Y
b1001010 @
1%
#780000
0%
#785000
b1001011 @
b1001001 Y
1%
#790000
0%
#795000
b1001010 Y
b1001100 @
1%
#800000
0%
#805000
b1001101 @
b1001011 Y
1%
#810000
0%
#815000
b1001100 Y
b1001110 @
1%
#820000
0%
#825000
b1001111 @
b1001101 Y
1%
#830000
0%
#835000
b1001110 Y
b1010000 @
1%
#840000
0%
#845000
b1010001 @
b1001111 Y
1%
#850000
0%
#855000
b1010000 Y
b1010010 @
1%
#860000
0%
#865000
b1010011 @
b1010001 Y
1%
#870000
0%
#875000
b1010010 Y
b1010100 @
1%
#880000
0%
#885000
b1010101 @
b1010011 Y
1%
#890000
0%
#895000
b1010100 Y
b1010110 @
1%
#900000
0%
#905000
b1010111 @
b1010101 Y
1%
#910000
0%
#915000
b1010110 Y
b1011000 @
1%
#920000
0%
#925000
b1011001 @
b1010111 Y
1%
#930000
0%
#935000
b1011000 Y
b1011010 @
1%
#940000
0%
#945000
b1011011 @
b1011001 Y
1%
#950000
0%
#955000
b1011010 Y
b1011100 @
1%
#960000
0%
#965000
b1011101 @
b1011011 Y
1%
#970000
0%
#975000
b1011100 Y
b1011110 @
1%
#980000
0%
#985000
b1011111 @
b1011101 Y
1%
#990000
0%
#995000
b1011110 Y
b1100000 @
1%
#1000000
0%
#1005000
b1100001 @
b1011111 Y
1%
#1010000
0%
#1015000
b1100000 Y
b1100010 @
1%
#1020000
0%
#1025000
b1100011 @
b1100001 Y
1%
#1030000
0%
#1035000
b1100010 Y
b1100100 @
1%
#1040000
0%
#1045000
b1100101 @
b1100011 Y
1%
#1050000
0%
#1055000
b1100100 Y
b1100110 @
1%
#1060000
0%
#1065000
b1100111 @
b1100101 Y
1%
#1070000
0%
#1075000
b1100110 Y
b1101000 @
1%
#1080000
0%
#1085000
b1101001 @
b1100111 Y
1%
#1090000
0%
#1095000
b1101000 Y
b1101010 @
1%
#1100000
0%
#1105000
b1101011 @
b1101001 Y
1%
#1110000
0%
#1115000
b1101010 Y
b1101100 @
1%
#1120000
0%
#1125000
b1101101 @
b1101011 Y
1%
#1130000
0%
#1135000
b1101100 Y
b1101110 @
1%
#1140000
0%
#1145000
b1101111 @
b1101101 Y
1%
#1150000
0%
#1155000
b1101110 Y
b1110000 @
1%
#1160000
0%
#1165000
b1110001 @
b1101111 Y
1%
#1170000
0%
#1175000
b1110000 Y
b1110010 @
1%
#1180000
0%
#1185000
b1110011 @
b1110001 Y
1%
#1190000
0%
#1195000
b1110010 Y
b1110100 @
1%
#1200000
0%
#1205000
b1110101 @
b1110011 Y
1%
#1210000
0%
#1215000
b1110100 Y
b1110110 @
1%
#1220000
0%
#1225000
b1110111 @
b1110101 Y
1%
#1230000
0%
#1235000
b1110110 Y
b1111000 @
1%
#1240000
0%
#1245000
b1111001 @
b1110111 Y
1%
#1250000
0%
#1255000
b1111000 Y
b1111010 @
1%
#1260000
0%
#1265000
b1111011 @
b1111001 Y
1%
#1270000
0%
#1275000
b1111010 Y
b1111100 @
1%
#1280000
0%
#1285000
b1111101 @
b1111011 Y
1%
#1290000
0%
#1295000
b1111100 Y
b1111110 @
1%
#1300000
0%
#1305000
b1111111 @
b1111101 Y
1%
#1310000
0%
#1315000
b1111110 Y
b10000000 @
1%
#1320000
0%
#1325000
b10000001 @
b1111111 Y
1%
#1330000
0%
#1335000
b10000000 Y
b10000010 @
1%
#1340000
0%
#1345000
b10000011 @
b10000001 Y
1%
#1350000
0%
#1355000
b10000010 Y
b10000100 @
1%
#1360000
0%
#1365000
b10000101 @
b10000011 Y
1%
#1370000
0%
#1375000
b10000100 Y
b10000110 @
1%
#1380000
0%
#1385000
b10000111 @
b10000101 Y
1%
#1390000
0%
#1395000
b10000110 Y
b10001000 @
1%
#1400000
0%
#1405000
b10001001 @
b10000111 Y
1%
#1410000
0%
#1415000
b10001000 Y
b10001010 @
1%
#1420000
0%
#1425000
b10001011 @
b10001001 Y
1%
#1430000
0%
#1435000
b10001010 Y
b10001100 @
1%
#1440000
0%
#1445000
b10001101 @
b10001011 Y
1%
#1450000
0%
#1455000
b10001100 Y
b10001110 @
1%
#1460000
0%
#1465000
b10001111 @
b10001101 Y
1%
#1470000
0%
#1475000
b10001110 Y
b10010000 @
1%
#1480000
0%
#1485000
b10010001 @
b10001111 Y
1%
#1490000
0%
#1495000
b10010000 Y
b10010010 @
1%
#1500000
0%
#1505000
b10010011 @
b10010001 Y
1%
#1510000
0%
#1515000
b10010010 Y
b10010100 @
1%
#1520000
0%
#1525000
b10010101 @
b10010011 Y
1%
#1530000
0%
#1535000
b10010100 Y
b10010110 @
1%
#1540000
0%
#1545000
b10010111 @
b10010101 Y
1%
#1550000
0%
#1555000
b10010110 Y
b10011000 @
1%
#1560000
0%
#1565000
b10011001 @
b10010111 Y
1%
#1570000
0%
#1575000
b10011000 Y
b10011010 @
1%
#1580000
0%
#1585000
b10011011 @
b10011001 Y
1%
#1590000
0%
#1595000
b10011010 Y
b10011100 @
1%
#1600000
0%
#1605000
b10011101 @
b10011011 Y
1%
#1610000
0%
#1615000
b10011100 Y
b10011110 @
1%
#1620000
0%
#1625000
b10011111 @
b10011101 Y
1%
#1630000
0%
#1635000
b10011110 Y
b10100000 @
1%
#1640000
0%
#1645000
b10100001 @
b10011111 Y
1%
#1650000
0%
#1655000
b10100000 Y
b10100010 @
1%
#1660000
0%
#1665000
b10100011 @
b10100001 Y
1%
#1670000
0%
#1675000
b10100010 Y
b10100100 @
1%
#1680000
0%
#1685000
b10100101 @
b10100011 Y
1%
#1690000
0%
#1695000
b10100100 Y
b10100110 @
1%
#1700000
0%
#1705000
b10100111 @
b10100101 Y
1%
#1710000
0%
#1715000
b10100110 Y
b10101000 @
1%
#1720000
0%
#1725000
b10101001 @
b10100111 Y
1%
#1730000
0%
#1735000
b10101000 Y
b10101010 @
1%
#1740000
0%
#1745000
b10101011 @
b10101001 Y
1%
#1750000
0%
#1755000
b10101010 Y
b10101100 @
1%
#1760000
0%
#1765000
b10101101 @
b10101011 Y
1%
#1770000
0%
#1775000
b10101100 Y
b10101110 @
1%
#1780000
0%
#1785000
b10101111 @
b10101101 Y
1%
#1790000
0%
#1795000
b10101110 Y
b10110000 @
1%
#1800000
0%
#1805000
b10110001 @
b10101111 Y
1%
#1810000
0%
#1815000
b10110000 Y
b10110010 @
1%
#1820000
0%
#1825000
b10110011 @
b10110001 Y
1%
#1830000
0%
#1835000
b10110010 Y
b10110100 @
1%
#1840000
0%
#1845000
b10110101 @
b10110011 Y
1%
#1850000
0%
#1855000
b10110100 Y
b10110110 @
1%
#1860000
0%
#1865000
b10110111 @
b10110101 Y
1%
#1870000
0%
#1875000
b10110110 Y
b10111000 @
1%
#1880000
0%
#1885000
b10111001 @
b10110111 Y
1%
#1890000
0%
#1895000
b10111000 Y
b10111010 @
1%
#1900000
0%
#1905000
b10111011 @
b10111001 Y
1%
#1910000
0%
#1915000
b10111010 Y
b10111100 @
1%
#1920000
0%
#1925000
b10111101 @
b10111011 Y
1%
#1930000
0%
#1935000
b10111100 Y
b10111110 @
1%
#1940000
0%
#1945000
b10111111 @
b10111101 Y
1%
#1950000
0%
#1955000
b10111110 Y
b11000000 @
1%
#1960000
0%
#1965000
b11000001 @
b10111111 Y
1%
#1970000
0%
#1975000
b11000000 Y
b11000010 @
1%
#1980000
0%
#1985000
b11000011 @
b11000001 Y
1%
#1990000
0%
#1995000
b11000010 Y
b11000100 @
1%
#2000000
0%
#2005000
b11000101 @
b11000011 Y
1%
#2010000
0%
#2015000
b11000100 Y
b11000110 @
1%
#2020000
0%
#2025000
b11000111 @
b11000101 Y
1%
#2030000
0%
#2035000
b11000110 Y
b11001000 @
1%
#2040000
0%
#2045000
b11001001 @
b11000111 Y
1%
#2050000
0%
#2055000
b11001000 Y
b11001010 @
1%
#2060000
0%
#2065000
b11001011 @
b11001001 Y
1%
#2070000
0%
#2075000
b11001010 Y
b11001100 @
1%
#2080000
0%
#2085000
b11001101 @
b11001011 Y
1%
#2090000
0%
#2095000
b11001100 Y
b11001110 @
1%
#2100000
0%
#2105000
b11001111 @
b11001101 Y
1%
#2110000
0%
#2115000
b11001110 Y
b11010000 @
1%
#2120000
0%
#2125000
b11010001 @
b11001111 Y
1%
#2130000
0%
#2135000
b11010000 Y
b11010010 @
1%
#2140000
0%
#2145000
b11010011 @
b11010001 Y
1%
#2150000
0%
#2155000
b11010010 Y
b11010100 @
1%
#2160000
0%
#2165000
b11010101 @
b11010011 Y
1%
#2170000
0%
#2175000
b11010100 Y
b11010110 @
1%
#2180000
0%
#2185000
b11010111 @
b11010101 Y
1%
#2190000
0%
#2195000
b11010110 Y
b11011000 @
1%
#2200000
0%
#2205000
b11011001 @
b11010111 Y
1%
#2210000
0%
#2215000
b11011000 Y
b11011010 @
1%
#2220000
0%
#2225000
b11011011 @
b11011001 Y
1%
#2230000
0%
#2235000
b11011010 Y
b11011100 @
1%
#2240000
0%
#2245000
b11011101 @
b11011011 Y
1%
#2250000
0%
#2255000
b11011100 Y
b11011110 @
1%
#2260000
0%
#2265000
b11011111 @
b11011101 Y
1%
#2270000
0%
#2275000
b11011110 Y
b11100000 @
1%
#2280000
0%
#2285000
b11100001 @
b11011111 Y
1%
#2290000
0%
#2295000
b11100000 Y
b11100010 @
1%
#2300000
0%
#2305000
b11100011 @
b11100001 Y
1%
#2310000
0%
#2315000
b11100010 Y
b11100100 @
1%
#2320000
0%
#2325000
b11100101 @
b11100011 Y
1%
#2330000
0%
#2335000
b11100100 Y
b11100110 @
1%
#2340000
0%
#2345000
b11100111 @
b11100101 Y
1%
#2350000
0%
#2355000
b11100110 Y
b11101000 @
1%
#2360000
0%
#2365000
b11101001 @
b11100111 Y
1%
#2370000
0%
#2375000
b11101000 Y
b11101010 @
1%
#2380000
0%
#2385000
b11101011 @
b11101001 Y
1%
#2390000
0%
#2395000
b11101010 Y
b11101100 @
1%
#2400000
0%
#2405000
b11101101 @
b11101011 Y
1%
#2410000
0%
#2415000
b11101100 Y
b11101110 @
1%
#2420000
0%
#2425000
b11101111 @
b11101101 Y
1%
#2430000
0%
#2435000
b11101110 Y
b11110000 @
1%
#2440000
0%
#2445000
b11110001 @
b11101111 Y
1%
#2450000
0%
#2455000
b11110000 Y
b11110010 @
1%
#2460000
0%
#2465000
b11110011 @
b11110001 Y
1%
#2470000
0%
#2475000
b11110010 Y
b11110100 @
1%
#2480000
0%
#2485000
b11110101 @
b11110011 Y
1%
#2490000
0%
#2495000
b11110100 Y
b11110110 @
1%
#2500000
0%
#2505000
b11110111 @
b11110101 Y
1%
#2510000
0%
#2515000
b11110110 Y
b11111000 @
1%
#2520000
0%
#2525000
b11111001 @
b11110111 Y
1%
#2530000
0%
#2535000
b11111000 Y
b11111010 @
1%
#2540000
0%
#2545000
b11111011 @
b11111001 Y
1%
#2550000
0%
#2555000
b11111010 Y
b11111100 @
1%
#2560000
0%
#2565000
b11111101 @
b11111011 Y
1%
#2570000
0%
#2575000
b11111100 Y
b11111110 @
1%
#2580000
0%
#2585000
b11111111 @
b11111101 Y
1%
#2590000
0%
#2595000
b11111110 Y
b100000000 @
1%
#2600000
0%
#2605000
b100000001 @
b11111111 Y
1%
#2610000
0%
#2615000
bx ;
bx d
bx <
bx c
b11 `
b100000010 @
1%
#2620000
0%
#2625000
b10 B
b100000011 @
b0 `
0?
1>
1%
#2630000
0%
#2635000
b0 Y
b0 _
b0 %"
b0 ^
b0 f
b100100000111010110110100111011100100110101000111100010001100101010111011010010011111011111111000000111000010001000010001010100011111101000101111011010001001000101001101000010101010100000110011001110001000111110100001000111111111011000100001101010010111000 ]
b100100000111010110110100111011100100110101000111100010001100101010111011010010011111011111111000000111000010001000010001010100011111101000101111011010001001000101001101000010101010100000110011001110001000111110100001000111111111011000100001101010010111000 $"
b111100110111110011001100111111011111001110111001011101110101100010101011010000001100010100101011100111010000111000010110000011100000010100110111111110011011011001011011100111000101000110110010101100111110010100000010101101100010110111110000001011110011000 \
b111100110111110011001100111111011111001110111001011101110101100010101011010000001100010100101011100111010000111000010110000011100000010100110111111110011011011001011011100111000101000110110010101100111110010100000010101101100010110111110000001011110011000 e
1?
b1 `
0>
b100000100 @
0L
18"
b10 H
bx C
bx E
bx D
1%
#2640000
0%
#2645000
b100000101 @
b1 ="
b1111111111111111111111111111111111111111111111111111111111111111111111111111111111111111111111111111111111111111111111111111111010111010101011101101110011100110101011110100100010100000001110111011111111010010010111101000110011010000001101100100000101000001 <"
b1111111011011100101110100000100110000111011001010100001100100001111111101101110010111010000010011000011101100101010000110010000111111110110111001011101000001001100001110110010101000011001000011111111011011100101110100000100110000111011001010100001100100001 ;"
16
b10 `
1%
#2650000
0%
