5. Tools/Simulation/ecdsa_tb.vcd
$date
	Mon Jun 23 15:34:35 2025
$end
$version
	Icarus Verilog
$end
$timescale
	1ps
$end
$scope module ecdsa_tb $end
$var wire 520 ! sig_out [519:0] $end
$var wire 1 " error $end
$var wire 1 # done $end
$var wire 1 $ busy $end
$var reg 1 % clk $end
$var reg 256 & msg_in [255:0] $end
$var reg 256 ' nonce [255:0] $end
$var reg 256 ( priv_key [255:0] $end
$var reg 1 ) rst_n $end
$var reg 1 * start $end
$scope function random256 $end
$var integer 32 + s [31:0] $end
$var integer 32 , seed [31:0] $end
$upscope $end
$scope module ecdsa_inst $end
$var wire 1 % clk $end
$var wire 256 - msg_in [255:0] $end
$var wire 256 . nonce [255:0] $end
$var wire 256 / priv_key [255:0] $end
$var wire 1 ) rst_n $end
$var wire 1 * start $end
$var wire 256 0 mod_mul_result [255:0] $end
$var wire 1 1 mod_mul_error $end
$var wire 1 2 mod_mul_done $end
$var wire 1 3 mod_mul_busy $end
$var wire 256 4 mod_inv_result [255:0] $end
$var wire 1 5 mod_inv_error $end
$var wire 1 6 mod_inv_done $end
$var wire 1 7 mod_inv_busy $end
$var wire 256 8 mod_add_result [255:0] $end
$var wire 1 9 mod_add_error $end
$var wire 1 : mod_add_done $end
$var wire 1 ; mod_add_busy $end
$var wire 256 < ec_y [255:0] $end
$var wire 256 = ec_x [255:0] $end
$var wire 1 > ec_error $end
$var wire 1 ? ec_done $end
$var wire 1 @ ec_busy $end
$var reg 1 $ busy $end
$var reg 16 A cycle_count [15:0] $end
$var reg 1 # done $end
$var reg 1 " error $end
$var reg 256 B k_inv [255:0] $end
$var reg 4 C next_state [3:0] $end
$var reg 256 D r [255:0] $end
$var reg 256 E rx [255:0] $end
$var reg 256 F ry [255:0] $end
$var reg 256 G s [255:0] $end
$var reg 520 H sig_out [519:0] $end
$var reg 4 I state [3:0] $end
$var reg 256 J temp_result [255:0] $end
$var reg 8 K v [7:0] $end
$scope module ec_mult $end
$var wire 1 % clk $end
$var wire 256 L k [255:0] $end
$var wire 1 ) rst_n $end
$var wire 1 M start $end
$var wire 256 N mod_sub_result [255:0] $end
$var wire 1 O mod_sub_done $end
$var wire 1 P mod_sub_busy $end
$var wire 256 Q mod_mul_result [255:0] $end
$var wire 1 R mod_mul_done $end
$var wire 1 S mod_mul_busy $end
$var wire 256 T mod_inv_result [255:0] $end
$var wire 1 U mod_inv_done $end
$var wire 1 V mod_inv_busy $end
$var wire 256 W mod_add_result [255:0] $end
$var wire 1 X mod_add_done $end
$var wire 1 Y mod_add_busy $end
$var reg 8 Z bit_count [7:0] $end
$var reg 1 @ busy $end
$var reg 1 ? done $end
$var reg 1 > error $end
$var reg 256 [ k_reg [255:0] $end
$var reg 256 \ lambda [255:0] $end
$var reg 256 ] px [255:0] $end
$var reg 256 ^ py [255:0] $end
$var reg 256 _ qx [255:0] $end
$var reg 256 ` qy [255:0] $end
$var reg 3 a state [2:0] $end
$var reg 256 b temp_x [255:0] $end
$var reg 256 c temp_y [255:0] $end
$var reg 256 d x [255:0] $end
$var reg 256 e y [255:0] $end
$scope module mod_add $end
$var wire 256 f a [255:0] $end
$var wire 256 g b [255:0] $end
$var wire 1 % clk $end
$var wire 256 h modulus [255:0] $end
$var wire 1 ) rst_n $end
$var wire 1 Y start $end
$var reg 1 Y busy $end
$var reg 1 X done $end
$var reg 1 i error $end
$var reg 256 j result [255:0] $end
$var reg 257 k sum [256:0] $end
$var reg 256 l temp_a [255:0] $end
$var reg 256 m temp_b [255:0] $end
$var reg 256 n temp_mod [255:0] $end
$upscope $end
$scope module mod_inv $end
$var wire 256 o a [255:0] $end
$var wire 1 % clk $end
$var wire 256 p modulus [255:0] $end
$var wire 1 ) rst_n $end
$var wire 1 V start $end
$var reg 1 V busy $end
$var reg 8 q count [7:0] $end
$var reg 1 U done $end
$var reg 1 r error $end
$var reg 256 s result [255:0] $end
$var reg 256 t u [255:0] $end
$var reg 256 u v [255:0] $end
$var reg 256 v x1 [255:0] $end
$var reg 256 w x2 [255:0] $end
$upscope $end
$scope module mod_mul $end
$var wire 256 x a [255:0] $end
$var wire 256 y b [255:0] $end
$var wire 1 % clk $end
$var wire 256 z modulus [255:0] $end
$var wire 1 ) rst_n $end
$var wire 1 S start $end
$var reg 1 S busy $end
$var reg 9 { count [8:0] $end
$var reg 1 R done $end
$var reg 1 | error $end
$var reg 256 } partial_result [255:0] $end
$var reg 512 ~ product [511:0] $end
$var reg 256 !" result [255:0] $end
$var reg 256 "" temp_a [255:0] $end
$var reg 256 #" temp_b [255:0] $end
$var reg 256 $" temp_mod [255:0] $end
$upscope $end
$scope module mod_sub $end
$var wire 256 %" a [255:0] $end
$var wire 256 &" b [255:0] $end
$var wire 1 % clk $end
$var wire 256 '" modulus [255:0] $end
$var wire 1 ) rst_n $end
$var wire 1 P start $end
$var reg 1 P busy $end
$var reg 256 (" diff [255:0] $end
$var reg 1 O done $end
$var reg 1 )" error $end
$var reg 256 *" result [255:0] $end
$var reg 256 +" temp_a [255:0] $end
$var reg 256 ," temp_b [255:0] $end
$var reg 256 -" temp_mod [255:0] $end
$upscope $end
$upscope $end
$scope module mod_adder $end
$var wire 256 ." a [255:0] $end
$var wire 256 /" b [255:0] $end
$var wire 1 % clk $end
$var wire 256 0" modulus [255:0] $end
$var wire 1 ) rst_n $end
$var wire 1 1" start $end
$var reg 1 ; busy $end
$var reg 1 : done $end
$var reg 1 9 error $end
$var reg 256 2" result [255:0] $end
$var reg 257 3" sum [256:0] $end
$var reg 256 4" temp_a [255:0] $end
$var reg 256 5" temp_b [255:0] $end
$var reg 256 6" temp_mod [255:0] $end
$upscope $end
$scope module mod_inverse $end
$var wire 256 7" a [255:0] $end
$var wire 1 % clk $end
$var wire 256 8" modulus [255:0] $end
$var wire 1 ) rst_n $end
$var wire 1 9" start $end
$var reg 1 7 busy $end
$var reg 8 :" count [7:0] $end
$var reg 1 6 done $end
$var reg 1 5 error $end
$var reg 256 ;" result [255:0] $end
$var reg 256 <" u [255:0] $end
$var reg 256 =" v [255:0] $end
$var reg 256 >" x1 [255:0] $end
$var reg 256 ?" x2 [255:0] $end
$upscope $end
$scope module mod_multiplier $end
$var wire 256 @" a [255:0] $end
$var wire 256 A" b [255:0] $end
$var wire 1 % clk $end
$var wire 256 B" modulus [255:0] $end
$var wire 1 ) rst_n $end
$var wire 1 C" start $end
$var reg 1 3 busy $end
$var reg 9 D" count [8:0] $end
$var reg 1 2 done $end
$var reg 1 1 error $end
$var reg 256 E" partial_result [255:0] $end
$var reg 512 F" product [511:0] $end
$var reg 256 G" result [255:0] $end
$var reg 256 H" temp_a [255:0] $end
$var reg 256 I" temp_b [255:0] $end
$var reg 256 J" temp_mod [255:0] $end
$upscope $end
$upscope $end
$upscope $end
$enddefinitions $end
#0
$dumpvars
b0 J"
b0 I"
b0 H"
b0 G"
b0 F"
b0 E"
b0 D"
0C"
b1111111111111111111111111111111111111111111111111111111111111111111111111111111111111111111111111111111111111111111111111111111010111010101011101101110011100110101011110100100010100000001110111011111111010010010111101000110011010000001101100100000101000001 B"
b0 A"
b0 @"
b0 ?"
b0 >"
b0 ="
b0 <"
b0 ;"
b0 :"
09"
b1111111111111111111111111111111111111111111111111111111111111111111111111111111111111111111111111111111111111111111111111111111010111010101011101101110011100110101011110100100010100000001110111011111111010010010111101000110011010000001101100100000101000001 8"
b0 7"
b0 6"
b0 5"
b0 4"
b0 3"
b0 2"
01"
b1111111111111111111111111111111111111111111111111111111111111111111111111111111111111111111111111111111111111111111111111111111010111010101011101101110011100110101011110100100010100000001110111011111111010010010111101000110011010000001101100100000101000001 0"
b0 /"
b0 ."
b0 -"
b0 ,"
b0 +"
b0 *"
0)"
b0 ("
b1111111111111111111111111111111111111111111111111111111111111111111111111111111111111111111111111111111111111111111111111111111111111111111111111111111111111111111111111111111111111111111111111111111111111111111111111111111011111111111111111111110000101111 '"
b0 &"
b0 %"
b0 $"
b0 #"
b0 ""
b0 !"
b0 ~
b0 }
0|
b0 {
b1111111111111111111111111111111111111111111111111111111111111111111111111111111111111111111111111111111111111111111111111111111111111111111111111111111111111111111111111111111111111111111111111111111111111111111111111111111011111111111111111111110000101111 z
bx y
bx x
b0 w
b0 v
b0 u
b0 t
b0 s
0r
b0 q
b1111111111111111111111111111111111111111111111111111111111111111111111111111111111111111111111111111111111111111111111111111111111111111111111111111111111111111111111111111111111111111111111111111111111111111111111111111111011111111111111111111110000101111 p
bx o
b0 n
b0 m
b0 l
b0 k
b0 j
0i
b1111111111111111111111111111111111111111111111111111111111111111111111111111111111111111111111111111111111111111111111111111111111111111111111111111111111111111111111111111111111111111111111111111111111111111111111111111111011111111111111111111110000101111 h
b0 g
b0 f
b0 e
b0 d
bx c
bx b
b0 a
b0 `
b0 _
b0 ^
b0 ]
bx \
b0 [
b0 Z
0Y
0X
b0 W
0V
0U
b0 T
0S
0R
b0 Q
0P
0O
b0 N
0M
b0 L
b0 K
b0 J
b0 I
b0 H
b0 G
b0 F
b0 E
b0 D
b0 C
b0 B
b0 A
0@
0?
0>
b0 =
b0 <
0;
0:
09
b0 8
07
06
05
b0 4
03
02
01
b0 0
b0 /
b0 .
b0 -
bx ,
bx +
0*
0)
b0 (
b0 '
b0 &
0%
0$
0#
0"
b0 !
$end
#5000
1%
#10000
0%
#15000
1%
#20000
0%
1)
#25000
1%
#30000
b1 C
0%
1*
b1111111011011100101110100000100110000111011001010100001100100001111111101101110010111010000010011000011101100101010000110010000111111110110111001011101000001001100001110110010101000011001000011111111011011100101110100000100110000111011001010100001100100001 '
b1111111011011100101110100000100110000111011001010100001100100001111111101101110010111010000010011000011101100101010000110010000111111110110111001011101000001001100001110110010101000011001000011111111011011100101110100000100110000111011001010100001100100001 .
b1111111011011100101110100000100110000111011001010100001100100001111111101101110010111010000010011000011101100101010000110010000111111110110111001011101000001001100001110110010101000011001000011111111011011100101110100000100110000111011001010100001100100001 L
b1111111011011100101110100000100110000111011001010100001100100001111111101101110010111010000010011000011101100101010000110010000111111110110111001011101000001001100001110110010101000011001000011111111011011100101110100000100110000111011001010100001100100001 7"
b1010000110110010110000111101010011100101111101100111100010010000000100100011010001010110011110001001000000010010001101000101011001111000100100001010101111001101111011110001001000110100010101100111100010010000101010111100110111101111000100100011010001010110 (
b1010000110110010110000111101010011100101111101100111100010010000000100100011010001010110011110001001000000010010001101000101011001111000100100001010101111001101111011110001001000110100010101100111100010010000101010111100110111101111000100100011010001010110 /
b1001000110100010101100111100010010000101010111100110111101111000100100011010001010110011110001001000010101011110011011110111100010010001101000101011001111000100100001010101111001101111011110001001000110100010101100111100010010000101010111100110111101111 &
b1001000110100010101100111100010010000101010111100110111101111000100100011010001010110011110001001000010101011110011011110111100010010001101000101011001111000100100001010101111001101111011110001001000110100010101100111100010010000101010111100110111101111 -
b1001000110100010101100111100010010000101010111100110111101111000100100011010001010110011110001001000010101011110011011110111100010010001101000101011001111000100100001010101111001101111011110001001000110100010101100111100010010000101010111100110111101111 ."
#35000
1M
b1 I
1$
1%
#40000
0%
0*
#45000
b1 A
b100100000111010110110100111011100100110101000111100010001100101010111011010010011111011111111000000111000010001000010001010100011111101000101111011010001001000101001101000010101010100000110011001110001000111110100001000111111111011000100001101010010111000 ^
b100100000111010110110100111011100100110101000111100010001100101010111011010010011111011111111000000111000010001000010001010100011111101000101111011010001001000101001101000010101010100000110011001110001000111110100001000111111111011000100001101010010111000 %"
b111100110111110011001100111111011111001110111001011101110101100010101011010000001100010100101011100111010000111000010110000011100000010100110111111110011011011001011011100111000101000110110010101100111110010100000010101101100010110111110000001011110011000 ]
b111100110111110011001100111111011111001110111001011101110101100010101011010000001100010100101011100111010000111000010110000011100000010100110111111110011011011001011011100111000101000110110010101100111110010100000010101101100010110111110000001011110011000 f
b1111111011011100101110100000100110000111011001010100001100100001111111101101110010111010000010011000011101100101010000110010000111111110110111001011101000001001100001110110010101000011001000011111111011011100101110100000100110000111011001010100001100100001 [
1@
b1 a
1%
#50000
0%
#55000
b10 a
b10 A
1%
#60000
0%
#65000
b11 A
b1 Z
bx ^
bx %"
bx ]
bx f
b0 \
b0 x
b0 y
b100100000111010110110100111011100100110101000111100010001100101010111011010010011111011111111000000111000010001000010001010100011111101000101111011010001001000101001101000010101010100000110011001110001000111110100001000111111111011000100001101010010111000 `
b100100000111010110110100111011100100110101000111100010001100101010111011010010011111011111111000000111000010001000010001010100011111101000101111011010001001000101001101000010101010100000110011001110001000111110100001000111111111011000100001101010010111000 &"
b111100110111110011001100111111011111001110111001011101110101100010101011010000001100010100101011100111010000111000010110000011100000010100110111111110011011011001011011100111000101000110110010101100111110010100000010101101100010110111110000001011110011000 _
b111100110111110011001100111111011111001110111001011101110101100010101011010000001100010100101011100111010000111000010110000011100000010100110111111110011011011001011011100111000101000110110010101100111110010100000010101101100010110111110000001011110011000 g
1%
#70000
0%
#75000
b10 Z
bx `
bx &"
bx _
bx g
b100 A
1%
#80000
0%
#85000
b101 A
b11 Z
1%
#90000
0%
#95000
b100 Z
b110 A
1%
#100000
0%
#105000
b111 A
b101 Z
1%
#110000
0%
#115000
b110 Z
b1000 A
1%
#120000
0%
#125000
b1001 A
b111 Z
1%
#130000
0%
#135000
b1000 Z
b1010 A
1%
#140000
0%
#145000
b1011 A
b1001 Z
1%
#150000
0%
#155000
b1010 Z
b1100 A
1%
#160000
0%
#165000
b1101 A
b1011 Z
1%
#170000
0%
#175000
b1100 Z
b1110 A
1%
#180000
0%
#185000
b1111 A
b1101 Z
1%
#190000
0%
#195000
b1110 Z
b10000 A
1%
#200000
0%
#205000
b10001 A
b1111 Z
1%
#210000
0%
#215000
b10000 Z
b10010 A
1%
#220000
0%
#225000
b10011 A
b10001 Z
1%
#230000
0%
#235000
b10010 Z
b10100 A
1%
#240000
0%
#245000
b10101 A
b10011 Z
1%
#250000
0%
#255000
b10100 Z
b10110 A
1%
#260000
0%
#265000
b10111 A
b10101 Z
1%
#270000
0%
#275000
b10110 Z
b11000 A
1%
#280000
0%
#285000
b11001 A
b10111 Z
1%
#290000
0%
#295000
b11000 Z
b11010 A
1%
#300000
0%
#305000
b11011 A
b11001 Z
1%
#310000
0%
#315000
b11010 Z
b11100 A
1%
#320000
0%
#325000
b11101 A
b11011 Z
1%
#330000
0%
#335000
b11100 Z
b11110 A
1%
#340000
0%
#345000
b11111 A
b11101 Z
1%
#350000
0%
#355000
b11110 Z
b100000 A
1%
#360000
0%
#365000
b100001 A
b11111 Z
1%
#370000
0%
#375000
b100000 Z
b100010 A
1%
#380000
0%
#385000
b100011 A
b100001 Z
1%
#390000
0%
#395000
b100010 Z
b100100 A
1%
#400000
0%
#405000
b100101 A
b100011 Z
1%
#410000
0%
#415000
b100100 Z
b100110 A
1%
#420000
0%
#425000
b100111 A
b100101 Z
1%
#430000
0%
#435000
b100110 Z
b101000 A
1%
#440000
0%
#445000
b101001 A
b100111 Z
1%
#450000
0%
#455000
b101000 Z
b101010 A
1%
#460000
0%
#465000
b101011 A
b101001 Z
1%
#470000
0%
#475000
b101010 Z
b101100 A
1%
#480000
0%
#485000
b101101 A
b101011 Z
1%
#490000
0%
#495000
b101100 Z
b101110 A
1%
#500000
0%
#505000
b101111 A
b101101 Z
1%
#510000
0%
#515000
b101110 Z
b110000 A
1%
#520000
0%
#525000
b110001 A
b101111 Z
1%
#530000
0%
#535000
b110000 Z
b110010 A
1%
#540000
0%
#545000
b110011 A
b110001 Z
1%
#550000
0%
#555000
b110010 Z
b110100 A
1%
#560000
0%
#565000
b110101 A
b110011 Z
1%
#570000
0%
#575000
b110100 Z
b110110 A
1%
#580000
0%
#585000
b110111 A
b110101 Z
1%
#590000
0%
#595000
b110110 Z
b111000 A
1%
#600000
0%
#605000
b111001 A
b110111 Z
1%
#610000
0%
#615000
b111000 Z
b111010 A
1%
#620000
0%
#625000
b111011 A
b111001 Z
1%
#630000
0%
#635000
b111010 Z
b111100 A
1%
#640000
0%
#645000
b111101 A
b111011 Z
1%
#650000
0%
#655000
b111100 Z
b111110 A
1%
#660000
0%
#665000
b111111 A
b111101 Z
1%
#670000
0%
#675000
b111110 Z
b1000000 A
1%
#680000
0%
#685000
b1000001 A
b111111 Z
1%
#690000
0%
#695000
b1000000 Z
b1000010 A
1%
#700000
0%
#705000
b1000011 A
b1000001 Z
1%
#710000
0%
#715000
b1000010 Z
b1000100 A
1%
#720000
0%
#725000
b1000101 A
b1000011 Z
1%
#730000
0%
#735000
b1000100 Z
b1000110 A
1%
#740000
0%
#745000
b1000111 A
b1000101 Z
1%
#750000
0%
#755000
b1000110 Z
b1001000 A
1%
#760000
0%
#765000
b1001001 A
b1000111 Z
1%
#770000
0%
#775000
b1001000 Z
b1001010 A
1%
#780000
0%
#785000
b1001011 A
b1001001 Z
1%
#790000
0%
#795000
b1001010 Z
b1001100 A
1%
#800000
0%
#805000
b1001101 A
b1001011 Z
1%
#810000
0%
#815000
b1001100 Z
b1001110 A
1%
#820000
0%
#825000
b1001111 A
b1001101 Z
1%
#830000
0%
#835000
b1001110 Z
b1010000 A
1%
#840000
0%
#845000
b1010001 A
b1001111 Z
1%
#850000
0%
#855000
b1010000 Z
b1010010 A
1%
#860000
0%
#865000
b1010011 A
b1010001 Z
1%
#870000
0%
#875000
b1010010 Z
b1010100 A
1%
#880000
0%
#885000
b1010101 A
b1010011 Z
1%
#890000
0%
#895000
b1010100 Z
b1010110 A
1%
#900000
0%
#905000
b1010111 A
b1010101 Z
1%
#910000
0%
#915000
b1010110 Z
b1011000 A
1%
#920000
0%
#925000
b1011001 A
b1010111 Z
1%
#930000
0%
#935000
b1011000 Z
b1011010 A
1%
#940000
0%
#945000
b1011011 A
b1011001 Z
1%
#950000
0%
#955000
b1011010 Z
b1011100 A
1%
#960000
0%
#965000
b1011101 A
b1011011 Z
1%
#970000
0%
#975000
b1011100 Z
b1011110 A
1%
#980000
0%
#985000
b1011111 A
b1011101 Z
1%
#990000
0%
#995000
b1011110 Z
b1100000 A
1%
#1000000
0%
#1005000
b1100001 A
b1011111 Z
1%
#1010000
0%
#1015000
b1100000 Z
b1100010 A
1%
#1020000
0%
#1025000
b1100011 A
b1100001 Z
1%
#1030000
0%
#1035000
b1100010 Z
b1100100 A
1%
#1040000
0%
#1045000
b1100101 A
b1100011 Z
1%
#1050000
0%
#1055000
b1100100 Z
b1100110 A
1%
#1060000
0%
#1065000
b1100111 A
b1100101 Z
1%
#1070000
0%
#1075000
b1100110 Z
b1101000 A
1%
#1080000
0%
#1085000
b1101001 A
b1100111 Z
1%
#1090000
0%
#1095000
b1101000 Z
b1101010 A
1%
#1100000
0%
#1105000
b1101011 A
b1101001 Z
1%
#1110000
0%
#1115000
b1101010 Z
b1101100 A
1%
#1120000
0%
#1125000
b1101101 A
b1101011 Z
1%
#1130000
0%
#1135000
b1101100 Z
b1101110 A
1%
#1140000
0%
#1145000
b1101111 A
b1101101 Z
1%
#1150000
0%
#1155000
b1101110 Z
b1110000 A
1%
#1160000
0%
#1165000
b1110001 A
b1101111 Z
1%
#1170000
0%
#1175000
b1110000 Z
b1110010 A
1%
#1180000
0%
#1185000
b1110011 A
b1110001 Z
1%
#1190000
0%
#1195000
b1110010 Z
b1110100 A
1%
#1200000
0%
#1205000
b1110101 A
b1110011 Z
1%
#1210000
0%
#1215000
b1110100 Z
b1110110 A
1%
#1220000
0%
#1225000
b1110111 A
b1110101 Z
1%
#1230000
0%
#1235000
b1110110 Z
b1111000 A
1%
#1240000
0%
#1245000
b1111001 A
b1110111 Z
1%
#1250000
0%
#1255000
b1111000 Z
b1111010 A
1%
#1260000
0%
#1265000
b1111011 A
b1111001 Z
1%
#1270000
0%
#1275000
b1111010 Z
b1111100 A
1%
#1280000
0%
#1285000
b1111101 A
b1111011 Z
1%
#1290000
0%
#1295000
b1111100 Z
b1111110 A
1%
#1300000
0%
#1305000
b1111111 A
b1111101 Z
1%
#1310000
0%
#1315000
b1111110 Z
b10000000 A
1%
#1320000
0%
#1325000
b10000001 A
b1111111 Z
1%
#1330000
0%
#1335000
b10000000 Z
b10000010 A
1%
#1340000
0%
#1345000
b10000011 A
b10000001 Z
1%
#1350000
0%
#1355000
b10000010 Z
b10000100 A
1%
#1360000
0%
#1365000
b10000101 A
b10000011 Z
1%
#1370000
0%
#1375000
b10000100 Z
b10000110 A
1%
#1380000
0%
#1385000
b10000111 A
b10000101 Z
1%
#1390000
0%
#1395000
b10000110 Z
b10001000 A
1%
#1400000
0%
#1405000
b10001001 A
b10000111 Z
1%
#1410000
0%
#1415000
b10001000 Z
b10001010 A
1%
#1420000
0%
#1425000
b10001011 A
b10001001 Z
1%
#1430000
0%
#1435000
b10001010 Z
b10001100 A
1%
#1440000
0%
#1445000
b10001101 A
b10001011 Z
1%
#1450000
0%
#1455000
b10001100 Z
b10001110 A
1%
#1460000
0%
#1465000
b10001111 A
b10001101 Z
1%
#1470000
0%
#1475000
b10001110 Z
b10010000 A
1%
#1480000
0%
#1485000
b10010001 A
b10001111 Z
1%
#1490000
0%
#1495000
b10010000 Z
b10010010 A
1%
#1500000
0%
#1505000
b10010011 A
b10010001 Z
1%
#1510000
0%
#1515000
b10010010 Z
b10010100 A
1%
#1520000
0%
#1525000
b10010101 A
b10010011 Z
1%
#1530000
0%
#1535000
b10010100 Z
b10010110 A
1%
#1540000
0%
#1545000
b10010111 A
b10010101 Z
1%
#1550000
0%
#1555000
b10010110 Z
b10011000 A
1%
#1560000
0%
#1565000
b10011001 A
b10010111 Z
1%
#1570000
0%
#1575000
b10011000 Z
b10011010 A
1%
#1580000
0%
#1585000
b10011011 A
b10011001 Z
1%
#1590000
0%
#1595000
b10011010 Z
b10011100 A
1%
#1600000
0%
#1605000
b10011101 A
b10011011 Z
1%
#1610000
0%
#1615000
b10011100 Z
b10011110 A
1%
#1620000
0%
#1625000
b10011111 A
b10011101 Z
1%
#1630000
0%
#1635000
b10011110 Z
b10100000 A
1%
#1640000
0%
#1645000
b10100001 A
b10011111 Z
1%
#1650000
0%
#1655000
b10100000 Z
b10100010 A
1%
#1660000
0%
#1665000
b10100011 A
b10100001 Z
1%
#1670000
0%
#1675000
b10100010 Z
b10100100 A
1%
#1680000
0%
#1685000
b10100101 A
b10100011 Z
1%
#1690000
0%
#1695000
b10100100 Z
b10100110 A
1%
#1700000
0%
#1705000
b10100111 A
b10100101 Z
1%
#1710000
0%
#1715000
b10100110 Z
b10101000 A
1%
#1720000
0%
#1725000
b10101001 A
b10100111 Z
1%
#1730000
0%
#1735000
b10101000 Z
b10101010 A
1%
#1740000
0%
#1745000
b10101011 A
b10101001 Z
1%
#1750000
0%
#1755000
b10101010 Z
b10101100 A
1%
#1760000
0%
#1765000
b10101101 A
b10101011 Z
1%
#1770000
0%
#1775000
b10101100 Z
b10101110 A
1%
#1780000
0%
#1785000
b10101111 A
b10101101 Z
1%
#1790000
0%
#1795000
b10101110 Z
b10110000 A
1%
#1800000
0%
#1805000
b10110001 A
b10101111 Z
1%
#1810000
0%
#1815000
b10110000 Z
b10110010 A
1%
#1820000
0%
#1825000
b10110011 A
b10110001 Z
1%
#1830000
0%
#1835000
b10110010 Z
b10110100 A
1%
#1840000
0%
#1845000
b10110101 A
b10110011 Z
1%
#1850000
0%
#1855000
b10110100 Z
b10110110 A
1%
#1860000
0%
#1865000
b10110111 A
b10110101 Z
1%
#1870000
0%
#1875000
b10110110 Z
b10111000 A
1%
#1880000
0%
#1885000
b10111001 A
b10110111 Z
1%
#1890000
0%
#1895000
b10111000 Z
b10111010 A
1%
#1900000
0%
#1905000
b10111011 A
b10111001 Z
1%
#1910000
0%
#1915000
b10111010 Z
b10111100 A
1%
#1920000
0%
#1925000
b10111101 A
b10111011 Z
1%
#1930000
0%
#1935000
b10111100 Z
b10111110 A
1%
#1940000
0%
#1945000
b10111111 A
b10111101 Z
1%
#1950000
0%
#1955000
b10111110 Z
b11000000 A
1%
#1960000
0%
#1965000
b11000001 A
b10111111 Z
1%
#1970000
0%
#1975000
b11000000 Z
b11000010 A
1%
#1980000
0%
#1985000
b11000011 A
b11000001 Z
1%
#1990000
0%
#1995000
b11000010 Z
b11000100 A
1%
#2000000
0%
#2005000
b11000101 A
b11000011 Z
1%
#2010000
0%
#2015000
b11000100 Z
b11000110 A
1%
#2020000
0%
#2025000
b11000111 A
b11000101 Z
1%
#2030000
0%
#2035000
b11000110 Z
b11001000 A
1%
#2040000
0%
#2045000
b11001001 A
b11000111 Z
1%
#2050000
0%
#2055000
b11001000 Z
b11001010 A
1%
#2060000
0%
#2065000
b11001011 A
b11001001 Z
1%
#2070000
0%
#2075000
b11001010 Z
b11001100 A
1%
#2080000
0%
#2085000
b11001101 A
b11001011 Z
1%
#2090000
0%
#2095000
b11001100 Z
b11001110 A
1%
#2100000
0%
#2105000
b11001111 A
b11001101 Z
1%
#2110000
0%
#2115000
b11001110 Z
b11010000 A
1%
#2120000
0%
#2125000
b11010001 A
b11001111 Z
1%
#2130000
0%
#2135000
b11010000 Z
b11010010 A
1%
#2140000
0%
#2145000
b11010011 A
b11010001 Z
1%
#2150000
0%
#2155000
b11010010 Z
b11010100 A
1%
#2160000
0%
#2165000
b11010101 A
b11010011 Z
1%
#2170000
0%
#2175000
b11010100 Z
b11010110 A
1%
#2180000
0%
#2185000
b11010111 A
b11010101 Z
1%
#2190000
0%
#2195000
b11010110 Z
b11011000 A
1%
#2200000
0%
#2205000
b11011001 A
b11010111 Z
1%
#2210000
0%
#2215000
b11011000 Z
b11011010 A
1%
#2220000
0%
#2225000
b11011011 A
b11011001 Z
1%
#2230000
0%
#2235000
b11011010 Z
b11011100 A
1%
#2240000
0%
#2245000
b11011101 A
b11011011 Z
1%
#2250000
0%
#2255000
b11011100 Z
b11011110 A
1%
#2260000
0%
#2265000
b11011111 A
b11011101 Z
1%
#2270000
0%
#2275000
b11011110 Z
b11100000 A
1%
#2280000
0%
#2285000
b11100001 A
b11011111 Z
1%
#2290000
0%
#2295000
b11100000 Z
b11100010 A
1%
#2300000
0%
#2305000
b11100011 A
b11100001 Z
1%
#2310000
0%
#2315000
b11100010 Z
b11100100 A
1%
#2320000
0%
#2325000
b11100101 A
b11100011 Z
1%
#2330000
0%
#2335000
b11100100 Z
b11100110 A
1%
#2340000
0%
#2345000
b11100111 A
b11100101 Z
1%
#2350000
0%
#2355000
b11100110 Z
b11101000 A
1%
#2360000
0%
#2365000
b11101001 A
b11100111 Z
1%
#2370000
0%
#2375000
b11101000 Z
b11101010 A
1%
#2380000
0%
#2385000
b11101011 A
b11101001 Z
1%
#2390000
0%
#2395000
b11101010 Z
b11101100 A
1%
#2400000
0%
#2405000
b11101101 A
b11101011 Z
1%
#2410000
0%
#2415000
b11101100 Z
b11101110 A
1%
#2420000
0%
#2425000
b11101111 A
b11101101 Z
1%
#2430000
0%
#2435000
b11101110 Z
b11110000 A
1%
#2440000
0%
#2445000
b11110001 A
b11101111 Z
1%
#2450000
0%
#2455000
b11110000 Z
b11110010 A
1%
#2460000
0%
#2465000
b11110011 A
b11110001 Z
1%
#2470000
0%
#2475000
b11110010 Z
b11110100 A
1%
#2480000
0%
#2485000
b11110101 A
b11110011 Z
1%
#2490000
0%
#2495000
b11110100 Z
b11110110 A
1%
#2500000
0%
#2505000
b11110111 A
b11110101 Z
1%
#2510000
0%
#2515000
b11110110 Z
b11111000 A
1%
#2520000
0%
#2525000
b11111001 A
b11110111 Z
1%
#2530000
0%
#2535000
b11111000 Z
b11111010 A
1%
#2540000
0%
#2545000
b11111011 A
b11111001 Z
1%
#2550000
0%
#2555000
b11111010 Z
b11111100 A
1%
#2560000
0%
#2565000
b11111101 A
b11111011 Z
1%
#2570000
0%
#2575000
b11111100 Z
b11111110 A
1%
#2580000
0%
#2585000
b11111111 A
b11111101 Z
1%
#2590000
0%
#2595000
b11111110 Z
b100000000 A
1%
#2600000
0%
#2605000
b100000001 A
b11111111 Z
1%
#2610000
0%
#2615000
bx <
bx e
bx =
bx d
b11 a
b100000010 A
1%
#2620000
0%
#2625000
b10 C
b100000011 A
b0 a
0@
1?
1%
#2630000
0%
#2635000
b0 Z
b0 `
b0 &"
b0 _
b0 g
b100100000111010110110100111011100100110101000111100010001100101010111011010010011111011111111000000111000010001000010001010100011111101000101111011010001001000101001101000010101010100000110011001110001000111110100001000111111111011000100001101010010111000 ^
b100100000111010110110100111011100100110101000111100010001100101010111011010010011111011111111000000111000010001000010001010100011111101000101111011010001001000101001101000010101010100000110011001110001000111110100001000111111111011000100001101010010111000 %"
b111100110111110011001100111111011111001110111001011101110101100010101011010000001100010100101011100111010000111000010110000011100000010100110111111110011011011001011011100111000101000110110010101100111110010100000010101101100010110111110000001011110011000 ]
b111100110111110011001100111111011111001110111001011101110101100010101011010000001100010100101011100111010000111000010110000011100000010100110111111110011011011001011011100111000101000110110010101100111110010100000010101101100010110111110000001011110011000 f
1@
b1 a
0?
b100000100 A
0M
19"
b10 I
bx D
bx F
bx E
1%
#2640000
0%
#2645000
b100000101 A
b1 >"
b1111111111111111111111111111111111111111111111111111111111111111111111111111111111111111111111111111111111111111111111111111111010111010101011101101110011100110101011110100100010100000001110111011111111010010010111101000110011010000001101100100000101000001 ="
b1111111011011100101110100000100110000111011001010100001100100001111111101101110010111010000010011000011101100101010000110010000111111110110111001011101000001001100001110110010101000011001000011111111011011100101110100000100110000111011001010100001100100001 <"
17
b10 a
1%
#2650000
0%
